Id;Prenom;Nom;Telephone;Est nouveau;Est Mineur;Association;Signe LSF;Jeudi 02 Mai 2024 Dejeuner;Vendredi 03 Mai 2024 Dejeuner;Vendredi 03 Mai 2024 Diner;Samedi 04 Mai 2024 Dejeuner;Dimanche 05 Mai 2024 Dejeuner;Est vege;Taille TShirt;Langues;Jours Presence;Referent;Tel Referent
1637940641757x452822921517317200;Ludovic;Brezault;0609026168;no;no;Buena Partida Social Club;no;yes;yes;no;yes;yes;no;L;"Francais
Allemand
Anglais";"Thursday 02 May 2024
Friday 03 May 2024
Saturday 04 May 2024
Sunday 05 May 2024
Monday 06 May 2024";" ";
1646583552074x892306380582439400;Dorian;Dechaume;0601791644;no;no;Croqueurs Ludiques;no;yes;yes;yes;yes;yes;no;XL;"Francais
Anglais";"Thursday 02 May 2024
Friday 03 May 2024
Saturday 04 May 2024
Sunday 05 May 2024
Monday 06 May 2024";" ";
1646595715870x538710517860163200;Fabien;PEROT;0671895835;no;no;J'Occi;no;no;no;yes;yes;yes;no;M;Francais;"Friday 03 May 2024
Saturday 04 May 2024
Sunday 05 May 2024";" ";
1646596376441x325674460789286100;Blandine;CERUTTI;0673159376;no;no;Alchimie du Jeu;no;yes;yes;yes;yes;yes;yes;XL;Francais;"Thursday 02 May 2024
Friday 03 May 2024
Sunday 05 May 2024
Saturday 04 May 2024";" ";
1646596432977x581806044707327200;Emilie;Fleuret;0673169665;no;no;Akrojeux;no;no;no;yes;no;yes;no;M;Francais;"Friday 03 May 2024
Saturday 04 May 2024
Sunday 05 May 2024";" ";
1646646047305x111906109940214990;Lucie;Cabiro;0623576996;no;no;Buena Partida Social Club;no;no;no;yes;no;yes;no;L;Francais;"Sunday 05 May 2024
Friday 03 May 2024";" ";
1646671248611x554823980473980540;Maxime;RUGEN;0664319955;no;no;Lauragames;no;yes;yes;no;yes;yes;no;M;"Francais
Anglais";"Thursday 02 May 2024
Friday 03 May 2024
Sunday 05 May 2024
Monday 06 May 2024
Saturday 04 May 2024";" ";
1646672051231x776866926717875200;"Hélène ";"Rossi ";0629020288;no;no;Alchimie du Jeu;no;no;yes;yes;yes;yes;no;XL;"Francais
Anglais";"Friday 03 May 2024
Saturday 04 May 2024
Sunday 05 May 2024
Thursday 02 May 2024";" ";
1646681454669x236271187781065020;Cédric;Marquevielle;0647521042;no;no;Akrojeux;no;yes;yes;yes;no;yes;no;L;"Francais
Anglais";"Thursday 02 May 2024
Friday 03 May 2024
Saturday 04 May 2024
Sunday 05 May 2024
Monday 06 May 2024";" ";
1646681486790x733322547099161300;Marine;Doineau;0636307129;no;no;Alchimie du Jeu;no;no;no;no;no;no;no;L;Francais;"Thursday 02 May 2024
Friday 03 May 2024
Monday 06 May 2024
Saturday 04 May 2024
Sunday 05 May 2024";" ";
1646681669554x266818486828172000;Clément;GOT;0625444210;no;no;Alchimie du Jeu;no;yes;yes;yes;yes;yes;no;L;"Francais
Anglais";"Thursday 02 May 2024
Friday 03 May 2024
Monday 06 May 2024
Saturday 04 May 2024
Sunday 05 May 2024";" ";
1646681708009x494249086113019800;Cédric;Schohn;;no;no;Jeux de Trolls;no;yes;no;yes;yes;yes;yes;XXXL;"Francais
Espagnol
Anglais";"Friday 03 May 2024
Saturday 04 May 2024
Sunday 05 May 2024
Thursday 02 May 2024";" ";
1646681856132x400087222431040100;"Hélène ";"CAHUZAC ";0607947129;no;no;"Blue Frog Mah-Jong Club ";no;no;yes;yes;no;no;no;L;Francais;"Friday 03 May 2024
Saturday 04 May 2024
Sunday 05 May 2024
Monday 06 May 2024";" ";
1646681891758x615187184083796900;Pierre;Jourdan;0670108212;no;no;Lauragames;no;yes;yes;yes;yes;yes;no;XL;"Francais
Anglais";"Friday 03 May 2024
Saturday 04 May 2024
Sunday 05 May 2024
Thursday 02 May 2024
Monday 06 May 2024";" ";
1646691624675x919621401283516000;Nicolas;Prévot;0678601096;no;no;Shiro Fonbo;no;no;yes;yes;yes;yes;no;XL;"Francais
Anglais";"Saturday 04 May 2024
Sunday 05 May 2024
Friday 03 May 2024
Thursday 02 May 2024";" ";
1646693446036x917775003149825500;Raphaël;Baldy;0699111708;no;no;Alchimie du Jeu;no;yes;yes;yes;yes;yes;no;XL;"Francais
Anglais";"Thursday 02 May 2024
Friday 03 May 2024
Saturday 04 May 2024
Sunday 05 May 2024";" ";
1646730229158x820408087462057900;Valentin;Rocher;0651399379;no;no;Alchimie du Jeu;no;no;yes;yes;no;yes;no;M;"Francais
Espagnol
Anglais";"Friday 03 May 2024
Sunday 05 May 2024";" ";
1646731397815x302478510461065500;Killian;Prévost;0783738122;no;no;;no;no;yes;yes;yes;yes;no;M;"Francais
Anglais";"Thursday 02 May 2024
Friday 03 May 2024
Saturday 04 May 2024
Sunday 05 May 2024";" ";
1646734848680x629149809610743700;Flavien;Clastres-Babou;0682693354;no;no;;no;no;yes;yes;yes;yes;no;XXL;Francais;"Friday 03 May 2024
Saturday 04 May 2024
Sunday 05 May 2024";" ";
1646736286227x147387003053740320;Arnaud;Fradin;+33670913268;no;no;Akrojeux;no;yes;yes;yes;yes;yes;no;L;"Francais
Anglais";"Thursday 02 May 2024
Friday 03 May 2024
Saturday 04 May 2024
Sunday 05 May 2024";" ";
1646736397439x380084687157937800;Benjamin;Doreau;0677342723;no;no;;no;no;yes;yes;yes;yes;no;L;Francais;"Friday 03 May 2024
Saturday 04 May 2024
Sunday 05 May 2024";" ";
1646738711746x425262720664276300;Melanie;PEVERELLY;0673497184;no;no;Terre de Jeu;no;yes;yes;no;yes;yes;no;L;Francais;"Friday 03 May 2024
Saturday 04 May 2024
Sunday 05 May 2024
Thursday 02 May 2024";" ";
1646742157363x550492733718131300;"Zoe ";LEROY;0662971181;no;no;;no;no;yes;yes;yes;yes;no;S;"Francais
Espagnol
Anglais";"Friday 03 May 2024
Saturday 04 May 2024
Sunday 05 May 2024";" ";
1646742725038x621993659072378000;Florent;BAQUÉ;0678394877;no;no;Terre de Jeu;no;no;yes;yes;yes;yes;no;XL;"Francais
Anglais";"Friday 03 May 2024
Saturday 04 May 2024
Sunday 05 May 2024
Monday 06 May 2024";" ";
1646747358660x631314463073804500;Marc;Boualam;0661350417;no;no;Les Enfants de R'Lyeh;no;no;yes;yes;yes;yes;no;L;"Francais
Anglais";"Friday 03 May 2024
Saturday 04 May 2024
Sunday 05 May 2024";" ";
1646761526093x961967076038499500;Jérémy;Cournet;0651951346;no;no;Joc ere;no;no;no;no;yes;yes;no;M;Francais;"Saturday 04 May 2024
Sunday 05 May 2024";" ";
1646763336417x366544679582711900;Lisa;Berthié-Donnadieu;0645000335;no;no;Jeux de Trolls;no;yes;yes;yes;yes;yes;no;XL;Francais;"Friday 03 May 2024
Saturday 04 May 2024
Sunday 05 May 2024
Thursday 02 May 2024";" ";
1646778948618x130411720183160500;Dimitri;Couturier;;no;no;;no;yes;yes;no;no;yes;yes;L;"Francais
Anglais";"Thursday 02 May 2024
Friday 03 May 2024
Sunday 05 May 2024";" ";
1646833789372x611135180277795300;Yann;Ruttner;0649214838;no;no;Alchimie du Jeu;no;no;no;no;no;no;no;S;"Francais
Anglais";Saturday 04 May 2024;" ";
1646841753573x757609883245804000;Natacha;CHARLON;0613104800;no;no;Buena Partida Social Club;no;no;no;yes;yes;yes;yes;M;"Francais
Allemand
Anglais";"Friday 03 May 2024
Saturday 04 May 2024
Sunday 05 May 2024";" ";
1646844027140x312354146602982200;Caty;Bruniquel;0651647210;no;no;FreeLUG;no;no;yes;yes;yes;yes;no;S;Francais;"Friday 03 May 2024
Saturday 04 May 2024
Sunday 05 May 2024";" ";
1646851884663x937539939762790400;Sylvain;Millard;0666044911;no;no;LOCA;no;yes;yes;no;no;yes;no;XXL;Francais;"Friday 03 May 2024
Thursday 02 May 2024
Saturday 04 May 2024
Sunday 05 May 2024
Monday 06 May 2024";" ";
1646861782433x842175870716731000;LOUIS;NAVARRO;0665384837;no;no;Buena Partida Social Club;no;no;no;yes;no;no;no;XL;"Francais
Espagnol";Friday 03 May 2024;" ";
1646899616388x899024875582201200;Arthur;Juin;0684731284;no;no;Terre de Jeu;no;no;yes;yes;yes;no;no;S;"Francais
Anglais";"Friday 03 May 2024
Saturday 04 May 2024
Sunday 05 May 2024";" ";
1646902667132x562669714869754200;Manuel;Andreini;0750809360;no;no;Buena Partida Social Club;no;no;no;yes;yes;yes;no;L;"Francais
Italien";"Friday 03 May 2024
Saturday 04 May 2024
Sunday 05 May 2024";" ";
1646902694134x590641203480376700;Florent;DESCAMPS;0785125527;no;no;"Blue Frog Mah-Jong Club ";no;no;no;yes;yes;yes;no;M;Francais;"Friday 03 May 2024
Saturday 04 May 2024
Sunday 05 May 2024";" ";
1646914639956x513563425221560400;eric;frouvelle;0607031675;no;no;Team Toulouse Création;no;no;no;yes;yes;yes;no;XL;"Francais
Espagnol
Anglais";"Friday 03 May 2024
Saturday 04 May 2024
Sunday 05 May 2024";" ";
1646991347089x749553093597454800;Yannick;COLLION;0603388729;no;no;Terre de Jeu;no;no;no;yes;yes;yes;no;L;Francais;"Saturday 04 May 2024
Sunday 05 May 2024
Friday 03 May 2024";" ";
1646995494968x224871277037891100;Jérémy Loup;Tri gano;0677127104;no;no;Shiro Fonbo;no;no;yes;no;yes;yes;no;L;Francais;"Friday 03 May 2024
Saturday 04 May 2024
Sunday 05 May 2024";" ";
1647006253460x817838536376887800;Myriam;Buerba;0677807482;no;no;Alchimie du Jeu;no;yes;yes;yes;yes;yes;no;XS;Francais;"Friday 03 May 2024
Saturday 04 May 2024
Sunday 05 May 2024
Thursday 02 May 2024";" ";
1647015478467x677322614067747700;Mathieu;PIALLAT;0767131220;no;no;Des Jeux à Vous;no;no;yes;yes;yes;yes;no;L;Francais;"Thursday 02 May 2024
Friday 03 May 2024
Saturday 04 May 2024
Sunday 05 May 2024";" ";
1647018381784x116046435387613170;Mélodie;Matrat;0676577123;no;no;Alchimie du Jeu;no;yes;yes;yes;yes;yes;no;M;Francais;"Friday 03 May 2024
Saturday 04 May 2024
Sunday 05 May 2024
Thursday 02 May 2024";" ";
1647027807058x953573610193714200;Jérémy;GUILLERMAND;;no;no;"Blue Frog Mah-Jong Club ";no;no;no;no;yes;yes;no;XXXL;"Francais
Italien
Anglais";"Saturday 04 May 2024
Sunday 05 May 2024";" ";
1647090266370x624013853238288000;Isabelle;Pigeonneau;0623820220;no;no;Alchimie du Jeu;no;no;no;yes;no;no;no;XXXL;Francais;Friday 03 May 2024;" ";
1647091057353x501188859005870400;Cyrille;Longin;0623344016;no;no;Buena Partida Social Club;no;no;no;no;yes;yes;no;M;"Francais
Anglais";"Saturday 04 May 2024
Sunday 05 May 2024";" ";
1647166465683x986906578643021000;"Clélia ";"Cabanié ";0771050759;no;no;Alchimie du Jeu;no;no;yes;yes;yes;yes;no;S;"Francais
Anglais";"Friday 03 May 2024
Saturday 04 May 2024
Sunday 05 May 2024";" ";
1647173625967x403902278050998200;Adrien;Leroux;0661543804;no;no;Cité en Jeux;no;no;no;yes;no;yes;no;XXL;Francais;"Sunday 05 May 2024
Saturday 04 May 2024
Friday 03 May 2024";" ";
1647199217179x800653081165950200;Géraldine;Eygonnet;0787192116;no;no;Buena Partida Social Club;no;no;yes;no;yes;yes;no;XXL;Francais;"Friday 03 May 2024
Saturday 04 May 2024
Sunday 05 May 2024";" ";
1647251714062x238227529125021300;Steeve;Caston;0662415413;no;no;Buena Partida Social Club;no;yes;yes;yes;yes;yes;no;;Francais;"Thursday 02 May 2024
Friday 03 May 2024
Saturday 04 May 2024
Sunday 05 May 2024
Monday 06 May 2024";" ";
1647274356501x630992536298854400;Raphaëlle;GOURSAUD;0624663632;no;no;Alchimie du Jeu;no;yes;no;no;yes;yes;no;XL;"Francais
Anglais";"Thursday 02 May 2024
Saturday 04 May 2024
Sunday 05 May 2024
Friday 03 May 2024";" ";
1647297470129x790202997627032000;Christiane-Arnilda;de Kuyper;0787142173;no;no;Buena Partida Social Club;no;no;no;no;no;yes;yes;S;Francais;Sunday 05 May 2024;" ";
1647348119381x319286280619492500;David;Brouard;0683713218;no;no;Go-Seigen (jeu de go);no;no;no;no;no;yes;no;XL;"Francais
Anglais";"Saturday 04 May 2024
Sunday 05 May 2024";" ";
1647349744757x839975536655648900;Fabien;MONS;0685708876;no;no;Cité en Jeux;no;yes;yes;yes;yes;yes;no;L;Francais;"Thursday 02 May 2024
Friday 03 May 2024
Saturday 04 May 2024
Sunday 05 May 2024";" ";
1647349885871x298710968414718000;Nathalie;Rigaud;0667798401;no;no;Buena Partida Social Club;no;no;no;no;yes;yes;no;S;"Francais
Anglais";"Saturday 04 May 2024
Sunday 05 May 2024";" ";
1647350414233x689262692519610400;"Léa ";Madeuf;0695765925;no;no;EnVies EnJeux;no;yes;yes;no;no;no;no;M;"Francais
Anglais";"Sunday 05 May 2024
Saturday 04 May 2024
Friday 03 May 2024
Thursday 02 May 2024";" ";
1647350979757x916861221015326600;Vincent;Descargues;0769675365;no;no;Joc ere;no;yes;yes;yes;yes;yes;no;XL;"Francais
Allemand
Italien
Anglais";"Thursday 02 May 2024
Friday 03 May 2024
Saturday 04 May 2024
Sunday 05 May 2024
Monday 06 May 2024";" ";
1647355767698x234797659360791460;Sylvain;Robert;0633523604;no;no;Alchimie du Jeu;no;no;yes;yes;yes;yes;no;M;"Francais
Anglais";"Friday 03 May 2024
Saturday 04 May 2024
Sunday 05 May 2024";" ";
1647358812435x660961774561724700;bruno;desch;0786427988;no;no;Buena Partida Social Club;no;yes;yes;yes;yes;yes;no;XL;Francais;"Thursday 02 May 2024
Friday 03 May 2024
Saturday 04 May 2024
Sunday 05 May 2024";" ";
1647368738418x684053743777146100;Camille;Thiel;0619055560;no;no;Hell's Kitchen;no;yes;yes;yes;no;yes;no;M;Francais;"Thursday 02 May 2024
Friday 03 May 2024
Saturday 04 May 2024
Sunday 05 May 2024";" ";
1647378032161x402551953886239700;Mathieu;Arthaud;0675463691;no;no;Consulat d'elleslande;no;no;yes;yes;yes;yes;yes;M;Francais;"Friday 03 May 2024
Saturday 04 May 2024
Sunday 05 May 2024";" ";
1647381651234x636468379899183900;Stéphane;Dauvillier;0618245778;no;no;;no;no;no;no;no;no;yes;M;Francais;"Friday 03 May 2024
Saturday 04 May 2024
Sunday 05 May 2024";" ";
1647395977239x799522881855491000;Yun;CHAN;;no;no;Buena Partida Social Club;no;no;yes;yes;yes;yes;no;XXL;Francais;"Friday 03 May 2024
Saturday 04 May 2024
Sunday 05 May 2024";" ";
1647423262794x382728367600793100;Céline;Boutet;0619012419;no;no;Joc ere;no;no;yes;yes;yes;yes;yes;L;Francais;"Friday 03 May 2024
Saturday 04 May 2024
Sunday 05 May 2024";" ";
1647434819829x311107147743616450;Nicolas;MATHIEU;0672922502;no;no;MALT;no;no;no;no;no;no;no;XXL;Francais;"Friday 03 May 2024
Saturday 04 May 2024
Sunday 05 May 2024";" ";
1647439550642x662904889792007800;Xavier;Mérand;0623024486;no;no;Accessijeux;no;no;no;no;no;no;no;XL;"Francais
Espagnol
Anglais";;" ";
1647458905932x454833479667392960;Janick;Matton;0636990809;no;no;SC'LE Jeu;yes;yes;yes;yes;yes;yes;yes;XL;"Francais
Anglais";"Friday 03 May 2024
Saturday 04 May 2024
Sunday 05 May 2024
Thursday 02 May 2024";" ";
1647459214829x789546394025228800;Pierre;Matton;0787761840;no;no;SC'LE Jeu;no;no;yes;yes;yes;yes;no;XXL;"Francais
Espagnol
Anglais";"Friday 03 May 2024
Saturday 04 May 2024
Sunday 05 May 2024";" ";
1647463594116x883862325243622900;Yannick;Mescam;0661208611;no;no;Joc ere;no;no;yes;yes;no;yes;no;XXXL;"Francais
Anglais";"Friday 03 May 2024
Sunday 05 May 2024";" ";
1647510959158x149238416871068540;Julien;Schauber;0630442763;no;no;Lauragames;no;no;yes;yes;yes;yes;no;L;Francais;"Friday 03 May 2024
Saturday 04 May 2024
Sunday 05 May 2024";" ";
1647513898469x750735726848193500;Romaric;Galonnier;0695525121;no;no;Alchimie du Jeu;no;no;yes;yes;yes;yes;no;XL;"Francais
Anglais";"Friday 03 May 2024
Saturday 04 May 2024
Sunday 05 May 2024";" ";
1647525676388x649406773224686800;Romain;Sedran;0632904854;no;no;Joc ere;no;no;yes;yes;no;yes;no;XL;Francais;"Friday 03 May 2024
Saturday 04 May 2024
Sunday 05 May 2024";" ";
1647527281543x555173783552633840;Fabien;Guion;0681596442;no;no;Lauragames;no;yes;yes;no;no;yes;no;M;"Francais
Anglais";"Friday 03 May 2024
Thursday 02 May 2024
Sunday 05 May 2024";" ";
1647531789714x594706521982013200;Jérémy;Béliez;;no;no;Joc ere;no;yes;yes;yes;yes;yes;no;M;"Francais
Anglais";"Friday 03 May 2024
Saturday 04 May 2024
Sunday 05 May 2024
Thursday 02 May 2024";" ";
1647539125299x964015448671139200;Fabien;Rey;0695363338;no;no;Des Jeux à Vous;no;no;no;yes;yes;yes;no;XL;Francais;"Friday 03 May 2024
Saturday 04 May 2024
Sunday 05 May 2024";" ";
1647553239522x840717394505255300;Julie;LAUNAY;0688769088;no;no;Alchimie du Jeu;no;yes;yes;yes;yes;yes;no;M;Francais;"Thursday 02 May 2024
Friday 03 May 2024
Saturday 04 May 2024
Sunday 05 May 2024";" ";
1647556098630x823034855981243000;Thomas;Quercy;;no;no;;no;no;no;yes;yes;no;no;XXL;Francais;"Friday 03 May 2024
Saturday 04 May 2024";" ";
1647581462631x741593674864420300;julie;voukassovitch;0683066317;no;no;Accessijeux;no;no;no;no;yes;yes;no;M;Francais;"Saturday 04 May 2024
Sunday 05 May 2024";" ";
1647589318064x296871063974714750;Jérémie;Dulain;0643959243;no;no;Croqueurs Ludiques;no;no;yes;yes;yes;yes;no;L;"Francais
Anglais";"Friday 03 May 2024
Saturday 04 May 2024
Sunday 05 May 2024";" ";
1647593557013x997545839899424100;richard;bleuse;0670103037;no;no;Les Enfants de R'Lyeh;no;no;no;yes;yes;yes;no;XXXL;Francais;"Friday 03 May 2024
Saturday 04 May 2024
Sunday 05 May 2024";" ";
1647601122691x424010936810196300;Jean-Christophe;Bousson;0684348283;no;no;Alchimie du Jeu;no;no;no;no;yes;yes;no;XL;Francais;"Friday 03 May 2024
Saturday 04 May 2024
Sunday 05 May 2024";" ";
1647630308224x715114951680004000;Christine;"Prévot ";0684214801;no;no;Shiro Fonbo;no;no;no;no;yes;yes;no;L;Francais;"Saturday 04 May 2024
Sunday 05 May 2024";" ";
1647679137048x949494068562599400;Alexis;Arnold;0611406354;no;no;Team Toulouse Création;no;no;no;yes;yes;yes;yes;XXL;"Francais
Anglais";"Friday 03 May 2024
Saturday 04 May 2024
Sunday 05 May 2024";" ";
1647689352898x887237448884959500;Thomas;Laguillon;0615231925;no;no;Team Toulouse Création;no;no;no;no;no;no;no;XXL;"Francais
Anglais";;" ";
1647717221477x166975264603358660;Caroline;Biro-Alberti;0782608442;no;no;Alchimie du Jeu;no;no;no;no;yes;yes;yes;S;"Francais
Allemand
Anglais";"Saturday 04 May 2024
Sunday 05 May 2024";" ";
1647717760696x577495433875214500;Aurélie;CHRETIEN;0650697986;no;no;1 Maillot pour la vie;yes;no;no;no;yes;no;no;XL;Francais;Saturday 04 May 2024;" ";
1647719380340x407435349760228540;Aymeric;Petit;0685674843;no;no;Cité en Jeux;no;yes;yes;yes;yes;yes;no;M;"Francais
Anglais";"Friday 03 May 2024
Saturday 04 May 2024
Thursday 02 May 2024
Sunday 05 May 2024
Monday 06 May 2024";" ";
1647728377334x467788332394140740;Luiza;Brezault;0609026168;no;yes;Buena Partida Social Club;no;no;no;no;no;yes;no;XS;Francais;Sunday 05 May 2024;Ludovic Brezault;0609026168
1647775438833x313453861128898200;Benjamin;Heyraud;;no;no;Team Toulouse Création;no;no;no;no;no;no;no;M;Francais;;" ";
1647793590768x860452768529707000;NICOLAS;SENTETS;0679057962;no;no;Alchimie du Jeu;no;no;no;yes;yes;yes;no;XXL;Francais;"Friday 03 May 2024
Saturday 04 May 2024
Sunday 05 May 2024";" ";
1647851906159x541011888214466560;Caro;Raynal;0649778237;no;no;Hell's Kitchen;no;no;no;yes;yes;yes;no;L;"Francais
Espagnol";"Friday 03 May 2024
Saturday 04 May 2024
Sunday 05 May 2024";" ";
1647852298178x182226802162718700;Sophie;Berger;0782277883;no;no;Hell's Kitchen;no;no;no;no;no;yes;no;;Francais;"Saturday 04 May 2024
Sunday 05 May 2024";" ";
1647852734196x526731712829074940;Gilles;Parisot;0664532651;no;no;Joc ere;no;no;no;no;yes;no;no;M;"Francais
Anglais";"Saturday 04 May 2024
Sunday 05 May 2024";" ";
1647858097893x557148821228810240;"Guilhem ";"Lajuzan ";0650604088;no;no;Buena Partida Social Club;no;no;yes;yes;yes;yes;no;M;Francais;"Friday 03 May 2024
Saturday 04 May 2024
Sunday 05 May 2024";" ";
1647859001436x264950007220980500;Stéphane;Cano;0659609371;no;no;CAT (Carrom à Toulouse);no;no;yes;yes;yes;yes;no;L;Francais;"Friday 03 May 2024
Saturday 04 May 2024
Sunday 05 May 2024";" ";
1647889257184x459664054579693800;Catherine;BRICQUET;0749817275;no;no;"Blue Frog Mah-Jong Club ";no;no;no;no;yes;no;no;L;Francais;"Friday 03 May 2024
Saturday 04 May 2024
Sunday 05 May 2024";" ";
1647890028213x879775998844148100;Youri;Daniloff;0647451746;no;no;Hell's Kitchen;no;no;no;yes;yes;yes;no;XL;Francais;"Friday 03 May 2024
Saturday 04 May 2024
Sunday 05 May 2024";" ";
1647891671863x906865572669776300;Thomas;JACOBS;;no;no;Alchimie du Jeu;no;no;no;yes;yes;yes;no;L;"Francais
Anglais";"Friday 03 May 2024
Saturday 04 May 2024
Sunday 05 May 2024";" ";
1647895191865x633393298681642000;Thierry;Petrissans;0633095394;no;no;Akene Play;no;no;no;yes;yes;yes;no;L;Francais;"Saturday 04 May 2024
Friday 03 May 2024
Sunday 05 May 2024";" ";
1647895474695x876516687792626000;Nathael;Petrissans;0633095394;no;yes;Akene Play;no;no;no;yes;yes;no;no;XS;Francais;"Friday 03 May 2024
Saturday 04 May 2024";Thierry Petrissans;0633095394
1647901253486x216346025561896960;William;Llobregat;0630569310;no;no;Buena Partida Social Club;no;yes;yes;yes;yes;yes;no;M;"Francais
Anglais";"Thursday 02 May 2024
Friday 03 May 2024
Saturday 04 May 2024
Sunday 05 May 2024
Monday 06 May 2024";" ";
1647940182227x879251700608064300;Erwan;Caminade;0665377537;no;no;Hell's Kitchen;no;yes;yes;yes;yes;yes;no;L;"Francais
Espagnol
Anglais";"Thursday 02 May 2024
Friday 03 May 2024
Saturday 04 May 2024
Sunday 05 May 2024";" ";
1647965336361x975423946612305500;Annabel;Fourcade;;no;no;Go-Seigen (jeu de go);no;no;no;no;no;no;no;S;Francais;Saturday 04 May 2024;" ";
1648019740360x613596109345946300;Laurent;Hiard;0626928771;no;no;Alchimie du Jeu;no;no;yes;yes;yes;yes;no;L;Francais;"Friday 03 May 2024
Saturday 04 May 2024
Sunday 05 May 2024
Thursday 02 May 2024";" ";
1648023693774x636432053387991900;karine;pugi;0678944775;no;no;Buena Partida Social Club;no;no;yes;no;yes;no;no;M;Francais;"Friday 03 May 2024
Saturday 04 May 2024";" ";
1648047605897x480826713190266200;Nicolas;Bestard;0629117380;no;no;EnVies EnJeux;no;no;yes;yes;yes;yes;no;S;"Francais
Anglais";"Friday 03 May 2024
Saturday 04 May 2024
Sunday 05 May 2024";" ";
1648052764892x783497889082689500;Emilie;STROPPIANA;0689047930;no;no;Alchimie du Jeu;no;yes;no;yes;no;no;yes;S;"Francais
Anglais";"Thursday 02 May 2024
Friday 03 May 2024
Monday 06 May 2024";" ";
1648062275591x914664590309654900;Emeline;Huguet;0626550050;no;no;Buena Partida Social Club;no;no;yes;no;yes;yes;no;L;Francais;"Friday 03 May 2024
Saturday 04 May 2024
Sunday 05 May 2024";" ";
1648064642488x225743314590919550;"Cécile ";"Guilloud ";0642038929;no;no;Lauragames;no;no;no;no;no;no;no;M;Francais;"Sunday 05 May 2024
Saturday 04 May 2024
Friday 03 May 2024";" ";
1648071650783x984477296242604900;Cyril;RONSEAUX;0681024651;no;no;Alchimie du Jeu;no;no;no;yes;no;no;no;XXL;"Francais
Anglais";"Friday 03 May 2024
Sunday 05 May 2024";" ";
1648074324770x211367948118326160;Josette;Cartayrade;0643641809;no;no;Buena Partida Social Club;no;yes;yes;no;no;no;no;L;Francais;"Thursday 02 May 2024
Friday 03 May 2024
Sunday 05 May 2024";" ";
1648109737893x460085599648019100;Baptiste;JOSSET;0695910520;no;no;Lauragames;no;no;no;yes;yes;yes;no;XL;Francais;"Friday 03 May 2024
Sunday 05 May 2024
Saturday 04 May 2024";" ";
1648228649789x110786594013265740;tasio;"aizpurua ";;no;no;Hell's Kitchen;no;yes;yes;yes;yes;yes;no;XXL;"Francais
Anglais";"Thursday 02 May 2024
Friday 03 May 2024
Saturday 04 May 2024
Sunday 05 May 2024
Monday 06 May 2024";" ";
1648293318621x865028547237816600;Manon;BONNET;;no;no;Hell's Kitchen;no;no;yes;yes;no;yes;no;M;Francais;"Friday 03 May 2024
Saturday 04 May 2024
Sunday 05 May 2024";" ";
1648293678129x574203219620239550;Noah;Domingues;0768227495;no;no;EnVies EnJeux;no;yes;yes;yes;yes;yes;no;L;Francais;"Friday 03 May 2024
Saturday 04 May 2024
Sunday 05 May 2024
Thursday 02 May 2024";" ";
1648301129923x879743061899573600;William;Cooper;0636499088;no;no;Alchimie du Jeu;no;yes;yes;no;no;yes;no;M;"Francais
Anglais";"Friday 03 May 2024
Sunday 05 May 2024
Monday 06 May 2024
Thursday 02 May 2024
Saturday 04 May 2024";" ";
1648304596078x884634009204459500;Guilhem;Mothe;0761933599;no;no;Alchimie du Jeu;no;no;no;no;no;no;no;M;Francais;"Saturday 04 May 2024
Sunday 05 May 2024
Friday 03 May 2024";" ";
1648316309684x862942431928361600;Chloé;Hiard;0652275575;no;no;Alchimie du Jeu;no;no;yes;yes;yes;yes;no;XS;Francais;"Friday 03 May 2024
Saturday 04 May 2024
Sunday 05 May 2024";" ";
1648340000195x112061634018041150;Maxime;HENNERON;0648064115;no;no;LOCA;no;yes;yes;yes;yes;yes;no;L;"Francais
Anglais";"Thursday 02 May 2024
Friday 03 May 2024
Saturday 04 May 2024
Sunday 05 May 2024";" ";
1648381858345x552677471101044300;Nicolas;FEDELIC;+33629892643;no;no;Les Enfants de R'Lyeh;no;no;yes;yes;yes;yes;no;L;Francais;"Friday 03 May 2024
Saturday 04 May 2024
Sunday 05 May 2024";" ";
1648394244231x366592996281476500;boris;prophette;0648825579;no;no;Buena Partida Social Club;no;no;yes;yes;yes;yes;no;L;"Francais
Anglais";"Friday 03 May 2024
Saturday 04 May 2024
Sunday 05 May 2024";" ";
1648404928146x807177683274843900;Olivier;Chauveau;0616990422;no;no;Alchimie du Jeu;no;yes;yes;yes;yes;yes;no;XXXL;Francais;"Thursday 02 May 2024
Friday 03 May 2024
Sunday 05 May 2024
Saturday 04 May 2024";" ";
1648405831501x110472322021063280;Michel;Méric;0621546535;no;no;Team Toulouse Création;no;no;no;no;no;no;no;XXXL;"Francais
Anglais";;" ";
1648459553307x379035404026630800;Elisa;Janezic;0618948106;no;no;Lauragames;no;no;yes;yes;yes;yes;no;L;Francais;"Friday 03 May 2024
Saturday 04 May 2024
Sunday 05 May 2024";" ";
1648461866914x230143595501670850;Nicolas;Bourgères;0609708127;no;no;Joc ere;no;no;yes;yes;yes;yes;no;XXL;Francais;"Friday 03 May 2024
Saturday 04 May 2024
Sunday 05 May 2024";" ";
1648467266675x675666726667494000;Chloé;Thuilliez;0674270350;yes;no;Joc ere;no;no;no;no;no;yes;no;M;Francais;"Saturday 04 May 2024
Sunday 05 May 2024";" ";
1648469943350x590467925828260000;Maxime;Sanselone;0624615875;no;no;Joc ere;no;no;yes;yes;yes;yes;yes;XL;"Francais
Anglais";"Friday 03 May 2024
Saturday 04 May 2024
Sunday 05 May 2024";" ";
1648475347893x799956076436677400;"Éric ";Piallat;0625935558;no;no;Joc ere;no;no;no;no;no;no;no;XXL;"Francais
Anglais";Saturday 04 May 2024;" ";
1648479635045x606255461027337000;Mathieu;Bessoles;0671084859;no;no;"Blue Frog Mah-Jong Club ";no;no;no;yes;no;no;no;XL;Francais;"Friday 03 May 2024
Saturday 04 May 2024
Sunday 05 May 2024";" ";
1648481863159x328507212756265800;Pierre;Aubry;0769620050;no;no;FreeLUG;no;no;yes;yes;yes;yes;no;XL;Francais;"Friday 03 May 2024
Saturday 04 May 2024
Sunday 05 May 2024";" ";
1648484099411x731935519413263500;Daniel;Botella;0683636500;no;no;Joc ere;no;yes;yes;yes;yes;yes;no;M;"Francais
Anglais";"Thursday 02 May 2024
Friday 03 May 2024
Monday 06 May 2024
Sunday 05 May 2024
Saturday 04 May 2024";" ";
1648489063095x624572851739062500;Lorenz;Janezic;;no;no;Lauragames;no;no;yes;yes;yes;yes;no;L;Francais;"Friday 03 May 2024
Saturday 04 May 2024
Sunday 05 May 2024";" ";
1648495995095x809905431541319000;Claire;Pouey;0777893304;no;no;Buena Partida Social Club;no;no;no;yes;yes;yes;yes;S;"Francais
Anglais";"Saturday 04 May 2024
Sunday 05 May 2024
Friday 03 May 2024";" ";
1648499171719x873342620801077800;Quentin;Michaud;0683189236;no;no;Alchimie du Jeu;no;no;no;no;yes;yes;yes;M;"Francais
Anglais";"Saturday 04 May 2024
Sunday 05 May 2024";" ";
1648499291283x473650008052990200;Fred;AGNES;0670061245;no;no;Akrojeux;no;yes;yes;yes;yes;yes;no;XXL;Francais;"Thursday 02 May 2024
Friday 03 May 2024
Saturday 04 May 2024
Sunday 05 May 2024";" ";
1648532913982x197200974700368450;"Françoise ";"Le Men ";0614610934;no;no;Terre de Jeu;no;no;no;no;yes;yes;no;L;Francais;"Friday 03 May 2024
Saturday 04 May 2024
Sunday 05 May 2024
Thursday 02 May 2024";" ";
1648538859008x388111381943762940;Emmanuelle;Landais;0686714715;no;no;Alchimie du Jeu;no;no;yes;yes;yes;yes;no;M;"Francais
Anglais";"Friday 03 May 2024
Saturday 04 May 2024
Sunday 05 May 2024";" ";
1648544442595x214298667653832320;Anne;SAINT DIZIER;0685995535;no;no;Alchimie du Jeu;no;no;yes;yes;yes;yes;no;M;"Francais
Anglais";"Friday 03 May 2024
Saturday 04 May 2024
Sunday 05 May 2024";" ";
1648547374899x396848250157417340;Thierry;Bernier;0673756031;no;no;Buena Partida Social Club;no;no;no;no;yes;no;no;L;Francais;Saturday 04 May 2024;" ";
1648549554985x489616414990911700;Océane;Guenand;0665582977;no;no;Terre de Jeu;no;yes;yes;yes;yes;yes;yes;L;Francais;"Friday 03 May 2024
Saturday 04 May 2024
Sunday 05 May 2024
Thursday 02 May 2024";" ";
1648565241747x969078887193361500;Emilie;Boisse;0679402750;no;no;;no;yes;yes;yes;yes;yes;no;XL;Francais;"Thursday 02 May 2024
Friday 03 May 2024
Saturday 04 May 2024
Sunday 05 May 2024";" ";
1648574421800x836420698417830000;Aurelie;Poirier;0670935574;no;no;LOCA;no;yes;yes;yes;yes;yes;no;L;Francais;"Thursday 02 May 2024
Friday 03 May 2024
Monday 06 May 2024
Sunday 05 May 2024
Saturday 04 May 2024";" ";
1648643181558x828295582570763800;Yann;BEDOIN;0630717465;no;no;SC'LE Jeu;no;no;yes;yes;no;no;no;M;"Francais
Anglais";Friday 03 May 2024;" ";
1648646822220x645597297771003400;Aurelien;Verpoort;;no;no;Cité en Jeux;no;no;no;yes;yes;yes;no;L;Francais;"Friday 03 May 2024
Saturday 04 May 2024
Sunday 05 May 2024";" ";
1648656837149x802336579263080800;Laurent;Brasseur;;no;no;;no;no;no;no;yes;yes;no;;;"Saturday 04 May 2024
Sunday 05 May 2024";" ";
1648665676358x425405854976501000;Laure;Brock;;no;no;Buena Partida Social Club;no;no;no;yes;yes;yes;yes;S;"Francais
Anglais";"Friday 03 May 2024
Saturday 04 May 2024
Sunday 05 May 2024";" ";
1648715659317x853320856879065700;Ludivine;TIREL;0620651106;no;no;Alchimie du Jeu;no;yes;yes;yes;yes;no;no;L;Francais;"Saturday 04 May 2024
Thursday 02 May 2024
Friday 03 May 2024";" ";
1648797481891x515760590316783400;pierre;thomazo;0678172457;no;no;SC'LE Jeu;no;no;no;no;no;no;no;L;"Francais
Anglais";Saturday 04 May 2024;" ";
1648888890767x286015470029923550;Clémence;Chevreau;0749335176;no;no;Alchimie du Jeu;yes;yes;yes;no;yes;no;no;M;Francais;"Thursday 02 May 2024
Friday 03 May 2024
Saturday 04 May 2024";" ";
1648919234162x428903925255570400;Amandine;Paillusson;0630708357;no;no;Alchimie du Jeu;no;no;no;yes;no;no;no;S;"Francais
Anglais";Friday 03 May 2024;" ";
1648973913915x267194084405134140;Aline;CASTON;0666246897;no;no;Buena Partida Social Club;no;no;no;yes;yes;yes;no;M;"Francais
Anglais";"Friday 03 May 2024
Saturday 04 May 2024
Sunday 05 May 2024";" ";
1649082008256x935265034225164700;benjamin;bouteille;0637915821;no;no;Alchimie du Jeu;no;no;no;yes;yes;yes;no;M;"Francais
Anglais";"Saturday 04 May 2024
Sunday 05 May 2024
Friday 03 May 2024";" ";
1649096943172x327546913721417700;Gauthier;LOUPIAC;0671214586;no;no;Team Toulouse Création;no;no;no;no;no;no;no;L;"Francais
Anglais";Saturday 04 May 2024;" ";
1649272821007x398432662676584800;Lucile;Monzat;0668303660;no;no;Alchimie du Jeu;no;no;yes;yes;yes;yes;no;XXL;"Francais
Anglais";"Friday 03 May 2024
Saturday 04 May 2024
Sunday 05 May 2024";" ";
1649354484399x331236320231284500;Theo;Maraval;0768494525;no;no;Alchimie du Jeu;no;yes;yes;yes;yes;yes;no;XL;Francais;"Thursday 02 May 2024
Friday 03 May 2024
Saturday 04 May 2024
Sunday 05 May 2024";" ";
1649413170106x314264940611004300;Emmanuel;Chauveau;0675476711;no;no;LOCA;no;yes;yes;yes;yes;yes;no;XXXL;"Francais
Anglais";"Friday 03 May 2024
Sunday 05 May 2024
Saturday 04 May 2024
Thursday 02 May 2024";" ";
1649447743438x857980060283087400;Carole;"Cordonnier Gaüzère ";0615461116;no;no;Alchimie du Jeu;no;no;no;no;yes;no;no;L;Francais;Saturday 04 May 2024;" ";
1649575403647x587861230032150400;Noel;Jouenne;0664833169;no;no;Alchimie du Jeu;yes;no;yes;no;yes;no;no;XL;Francais;"Friday 03 May 2024
Saturday 04 May 2024";" ";
1649584242353x950798743592961900;Beate;Ronseaux;0680310682;no;no;Alchimie du Jeu;no;no;no;yes;no;no;yes;XL;"Francais
Allemand
Anglais";Friday 03 May 2024;" ";
1649617333642x701745969182743200;Marie-Laure;CONTE;0620091613;no;no;Lauragames;no;no;no;no;yes;yes;no;XXL;Francais;"Saturday 04 May 2024
Sunday 05 May 2024";" ";
1649663223942x648986409433550700;"Luc ";Durand;;no;no;Buena Partida Social Club;no;no;no;yes;yes;yes;no;L;"Francais
Anglais";"Friday 03 May 2024
Saturday 04 May 2024
Sunday 05 May 2024";" ";
1649665516509x820837172883603800;Carine;HAMEL;0611832900;no;no;Alchimie du Jeu;yes;no;no;yes;yes;yes;yes;XL;Francais;"Thursday 02 May 2024
Friday 03 May 2024
Saturday 04 May 2024
Sunday 05 May 2024";" ";
1649667561078x299192196654535700;Marius;Caston;+33642029837;no;no;Buena Partida Social Club;no;no;no;yes;yes;yes;no;M;"Francais
Anglais";"Friday 03 May 2024
Saturday 04 May 2024
Sunday 05 May 2024";" ";
1649714065119x723974718536979800;Jérôme;Bézier;0643559275;no;no;Alchimie du Jeu;no;no;no;no;no;no;no;XL;"Francais
Anglais";Saturday 04 May 2024;" ";
1649914598196x410401471402755100;Louisa;Meeschaert-Votovic;0659705892;no;no;LE RECIF / Burning Potato Head Festival;no;no;no;no;yes;yes;yes;XXL;"Francais
Espagnol
Anglais";"Saturday 04 May 2024
Sunday 05 May 2024";" ";
1649941770044x756835800638281600;Frédéric;LIGEARD;0649528601;no;no;Lauragames;no;no;no;no;yes;yes;no;XXXL;Francais;"Saturday 04 May 2024
Sunday 05 May 2024";" ";
1649965033540x275603951687385600;Mirjam;GALL;;no;no;Cité en Jeux;no;no;no;yes;no;no;no;XL;Francais;Friday 03 May 2024;" ";
1649966692687x192138336026777000;Marielou;Edom;0633157474;no;no;Alchimie du Jeu;no;yes;yes;yes;yes;yes;no;M;"Francais
Espagnol";"Saturday 04 May 2024
Sunday 05 May 2024
Friday 03 May 2024
Thursday 02 May 2024";" ";
1650029782463x613245814372116500;Laetitia;HAVREZ;0674246327;no;no;Alchimie du Jeu;no;yes;yes;yes;yes;yes;yes;M;Francais;"Thursday 02 May 2024
Friday 03 May 2024
Saturday 04 May 2024
Sunday 05 May 2024";" ";
1650109658297x752046175320346500;Julien;BROCERO;0645914105;no;no;Akene Play;no;no;no;yes;no;yes;no;XL;"Francais
Anglais";"Friday 03 May 2024
Sunday 05 May 2024";" ";
1650114083620x368235884843809860;Thomas;Watier;0778253892;no;no;Cité en Jeux;no;no;yes;yes;no;no;no;XL;"Francais
Anglais";Friday 03 May 2024;" ";
1650130381055x671395819407979000;"Marie ";Prévot;0783932032;no;no;Shiro Fonbo;no;no;no;yes;yes;yes;no;M;"Francais
Anglais";"Saturday 04 May 2024
Sunday 05 May 2024
Friday 03 May 2024";" ";
1650145904946x724111422182292200;Natacha;Millard;0681463100;no;no;LOCA;no;no;no;no;no;yes;yes;L;Francais;"Friday 03 May 2024
Sunday 05 May 2024
Saturday 04 May 2024";" ";
1650187555672x414605670688903900;Ghiles;Salhi;;no;no;EnVies EnJeux;no;no;yes;no;no;no;no;L;"Francais
Anglais";"Friday 03 May 2024
Saturday 04 May 2024
Sunday 05 May 2024";" ";
1650302826275x617679935187866100;Antoine;DUBOIS;0651569834;no;no;"Blue Frog Mah-Jong Club ";no;no;no;no;no;yes;no;L;Francais;"Friday 03 May 2024
Sunday 05 May 2024";" ";
1650357038416x928107281361963500;Guillaume;Delpas;0612950042;no;no;Team Toulouse Création;no;no;no;yes;no;yes;no;L;Francais;"Friday 03 May 2024
Saturday 04 May 2024
Sunday 05 May 2024";" ";
1650363096961x777496469593026800;"Julien ";"Dordonne ";0641192798;no;no;LE RECIF / Burning Potato Head Festival;no;yes;yes;yes;yes;yes;yes;XXL;"Francais
Anglais";"Thursday 02 May 2024
Friday 03 May 2024
Saturday 04 May 2024
Sunday 05 May 2024";" ";
1650388321984x972372605751134200;Lily;Allais;0671625722;no;no;Alchimie du Jeu;no;yes;yes;yes;yes;yes;yes;L;Francais;"Thursday 02 May 2024
Friday 03 May 2024
Saturday 04 May 2024
Sunday 05 May 2024";" ";
1650390871063x831992286510056200;Olivier;Soulairol;;no;no;;no;no;yes;no;no;no;no;;;"Friday 03 May 2024
Saturday 04 May 2024";" ";
1650445554339x551337044598678460;Clervie;Lecorre;;no;no;CAT (Carrom à Toulouse);no;no;no;no;yes;yes;yes;L;"Francais
Anglais";"Saturday 04 May 2024
Sunday 05 May 2024";" ";
1650453025999x320289877815174850;Jeremy;Boudret;0605317219;no;no;UPSJDR;no;no;yes;no;no;yes;no;M;Francais;"Friday 03 May 2024
Sunday 05 May 2024";" ";
1650463932242x668128368784322300;Sarah;Lotfi;0626978551;no;no;Buena Partida Social Club;no;yes;yes;yes;yes;yes;no;M;"Francais
Anglais";"Friday 03 May 2024
Saturday 04 May 2024
Sunday 05 May 2024
Thursday 02 May 2024";" ";
1650476793370x568120010916881150;Fabien;BRUNIER;0643844982;no;no;LE RECIF / Burning Potato Head Festival;no;no;no;no;no;yes;no;M;Francais;"Saturday 04 May 2024
Sunday 05 May 2024";" ";
1650477052048x139668991173519170;"Ludovic ";Caston;;no;no;Buena Partida Social Club;no;no;no;yes;no;no;no;L;"Francais
Anglais";"Friday 03 May 2024
Saturday 04 May 2024
Sunday 05 May 2024";" ";
1650481754165x383741050919579400;Florian;Thuillet;;no;no;Alchimie du Jeu;no;no;no;yes;yes;yes;no;L;"Francais
Anglais";"Sunday 05 May 2024
Saturday 04 May 2024
Friday 03 May 2024";" ";
1650496355650x418590284156576060;Olivier;Toubert;0666397522;no;no;CAT (Carrom à Toulouse);no;no;no;yes;yes;yes;yes;XL;Francais;"Friday 03 May 2024
Saturday 04 May 2024
Sunday 05 May 2024";" ";
1650497067171x946726298220211200;Bruno;MAILLARD;0676601163;no;no;Buena Partida Social Club;no;no;yes;yes;yes;yes;no;XXL;Francais;"Friday 03 May 2024
Saturday 04 May 2024
Sunday 05 May 2024";" ";
1650533703661x281813987057249340;Clément;MARASSE;0612833432;no;no;Buena Partida Social Club;no;no;no;yes;yes;yes;no;L;"Francais
Anglais
Allemand";"Friday 03 May 2024
Saturday 04 May 2024
Sunday 05 May 2024";" ";
1650562597940x101034455761528370;"Arnaud ";"Taffin ";0676498628;no;no;Alchimie du Jeu;no;no;no;no;no;no;no;S;"Francais
Espagnol
Anglais";"Saturday 04 May 2024
Sunday 05 May 2024";" ";
1650620640500x500734144774672500;Marc;LEONARD;;no;no;Cité en Jeux;no;no;no;no;yes;yes;no;XL;Francais;"Saturday 04 May 2024
Sunday 05 May 2024";" ";
1650642847552x138350137147338130;Emilie;Trayssac;0681945168;no;no;Alchimie du Jeu;yes;no;no;yes;yes;yes;no;M;"Francais
Anglais";"Sunday 05 May 2024
Friday 03 May 2024
Saturday 04 May 2024";" ";
1650657954506x488388656244626400;Rachel;Vannier;0689952993;no;no;Buena Partida Social Club;no;no;no;no;no;yes;no;XL;"Francais
Anglais";Sunday 05 May 2024;" ";
1650708808871x794133066776265200;Fred;Zermano;0673214216;no;no;Squad Tolosà;no;no;no;no;yes;yes;no;XL;"Francais
Anglais";"Saturday 04 May 2024
Sunday 05 May 2024";" ";
1650712317358x390047102837440800;Philippe;Bernard;0676776589;no;no;Toulouse All In Poker;no;no;no;no;no;yes;no;XXL;Francais;"Sunday 05 May 2024
Saturday 04 May 2024
Friday 03 May 2024";" ";
1650714881882x857695762643537000;yvan;canitrot;;no;no;LOCA;no;no;no;no;yes;no;no;M;Francais;Saturday 04 May 2024;" ";
1650720301767x882395889946341300;"Richard ";AURIER;0612653546;no;no;Alchimie du Jeu;no;no;no;no;no;no;no;L;;"Thursday 02 May 2024
Sunday 05 May 2024";" ";
1650792657789x855226301118947000;Arnaud;SERRE-ALLAUX;0678342911;no;no;LOCA;no;yes;yes;yes;yes;yes;yes;S;"Francais
Anglais";"Friday 03 May 2024
Thursday 02 May 2024
Saturday 04 May 2024
Sunday 05 May 2024
Monday 06 May 2024";" ";
1650795802452x246875275206819520;Charlotte;Dokhelar;0671521414;no;no;Buena Partida Social Club;no;no;yes;yes;yes;yes;no;S;"Francais
Anglais";"Friday 03 May 2024
Saturday 04 May 2024
Sunday 05 May 2024";" ";
1650796591527x631149561821387100;Julie;PEPIN;0623951637;no;no;LOCA;no;yes;yes;yes;yes;yes;no;XXL;"Francais
Anglais";"Thursday 02 May 2024
Friday 03 May 2024
Saturday 04 May 2024
Sunday 05 May 2024
Monday 06 May 2024";" ";
1650805559123x345894080562473540;Rémi;Fazendeiro;0629831844;no;no;LE RECIF / Burning Potato Head Festival;no;no;no;no;no;no;no;L;Francais;Saturday 04 May 2024;" ";
1650805593194x267135532697088580;Alena;Homo;0683493919;no;no;LE RECIF / Burning Potato Head Festival;no;no;no;no;no;no;no;S;Francais;Saturday 04 May 2024;" ";
1650828007940x130521224113427490;Julien;Roosen;;no;no;LOCA;no;no;no;no;no;no;no;XXL;Francais;Monday 06 May 2024;" ";
1650888863271x112826451656602200;Iben;Riey;;no;no;Niko Rolling Cuisine;no;no;no;no;no;no;no;XL;;Saturday 04 May 2024;" ";
1650890011355x825807641410629600;Mia;Riey;;no;no;Niko Rolling Cuisine;no;no;no;no;no;no;no;L;;Saturday 04 May 2024;" ";
1650892177825x545305707324193340;Nicolas;RIEY;;no;no;Niko Rolling Cuisine;no;no;no;no;no;no;no;XL;;Saturday 04 May 2024;" ";
1650892316602x369303243686063500;Oscar;Riey;;no;no;Niko Rolling Cuisine;no;no;no;no;no;no;no;XL;;Saturday 04 May 2024;" ";
1650897105686x521546619510281340;Arnaud;Dornier;0631452530;no;no;Y'a l'Jeu Au Lac;no;yes;yes;yes;yes;yes;no;L;"Francais
Anglais";"Friday 03 May 2024
Saturday 04 May 2024
Thursday 02 May 2024
Sunday 05 May 2024";" ";
1650907779754x428156405043381060;Ivan;Cerles;;no;no;Joc ere;no;no;no;yes;no;yes;no;L;"Francais
Espagnol";"Friday 03 May 2024
Sunday 05 May 2024";" ";
1650911398922x770379439595440600;Remi;Moreno;0616123674;no;no;Les Ailes de Nemesis;no;no;yes;yes;no;yes;no;XL;"Francais
Espagnol
Anglais";"Saturday 04 May 2024
Friday 03 May 2024
Sunday 05 May 2024";" ";
1650915132169x403539071165145660;Nathalie;Miguel;0652231365;no;no;Cité en Jeux;no;no;no;yes;yes;no;no;M;Francais;"Saturday 04 May 2024
Friday 03 May 2024";" ";
1650919251284x436112414385539700;Marianne;Manson;0651714903;no;no;;no;yes;no;no;yes;no;no;XL;"Francais
Anglais";"Thursday 02 May 2024
Saturday 04 May 2024
Sunday 05 May 2024";" ";
1650922350967x847358356148044000;Simon;Croquet;0683962447;no;no;Alchimie du Jeu;no;no;yes;yes;yes;yes;no;XXXL;"Francais
Anglais";"Friday 03 May 2024
Saturday 04 May 2024
Sunday 05 May 2024";" ";
1651064734922x386987411945405300;Karen;TOUFFET;0663537109;no;no;LOCA;;no;no;yes;yes;yes;no;L;"Francais
Italien
Anglais";"Friday 03 May 2024
Saturday 04 May 2024
Sunday 05 May 2024";" ";
1651526897244x684832309875689900;Philippe;d'Armagnac;;no;no;Alchimie du Jeu;no;no;no;no;no;yes;yes;L;"Francais
Espagnol
Anglais";"Saturday 04 May 2024
Sunday 05 May 2024";" ";
1678100370762x439904430007582300;Mélanie;Roelens;0687385671;no;no;Les Enfants de R'Lyeh;no;no;no;yes;yes;yes;yes;XXL;Francais;"Friday 03 May 2024
Saturday 04 May 2024
Sunday 05 May 2024";" ";
1678108133233x739258334659289600;edith;edith;0626625086;no;no;Buena Partida Social Club;no;no;yes;yes;yes;no;yes;M;Francais;"Friday 03 May 2024
Saturday 04 May 2024";" ";
1678206059789x599548172048698800;Benoît;Duée;0668646994;no;no;Alchimie du Jeu;no;yes;yes;yes;yes;yes;no;S;"Francais
Anglais";"Thursday 02 May 2024
Friday 03 May 2024
Saturday 04 May 2024
Sunday 05 May 2024";" ";
1678308088362x938717962744621200;Katia;CONFAIS;0652863366;no;no;Alchimie du Jeu;no;no;no;no;no;no;yes;XL;Francais;"Thursday 02 May 2024
Friday 03 May 2024
Monday 06 May 2024
Sunday 05 May 2024
Saturday 04 May 2024";" ";
1678377285635x585580268380085800;Clement;FERMIN;0663554559;no;no;Buena Partida Social Club;no;no;no;yes;yes;yes;no;L;Francais;"Friday 03 May 2024
Saturday 04 May 2024
Sunday 05 May 2024";" ";
1678873390323x728036657392511600;antoine;mouren;0782982663;no;no;Akrojeux;no;no;yes;no;no;yes;yes;XL;"Francais
Anglais";"Friday 03 May 2024
Sunday 05 May 2024";" ";
1678967348556x938090887481156000;Marie;BATTISTELLA;0611670295;no;no;Alchimie du Jeu;no;no;no;no;no;no;no;L;Francais;"Thursday 02 May 2024
Friday 03 May 2024
Saturday 04 May 2024
Sunday 05 May 2024";" ";
1678993480441x620159255810262000;Lucas;Corneloup;0688310885;no;no;;no;no;no;no;no;no;no;XL;"Francais
Anglais";Saturday 04 May 2024;" ";
1678996831699x295072779858587300;Nicolas;Bennes;0610963162;no;no;Alchimie du Jeu;no;no;no;no;no;no;no;S;Francais;Saturday 04 May 2024;" ";
1679070599793x927554856994347000;Loïc;AMBERT;0689140590;no;no;AST31 Tolosa;yes;no;no;yes;yes;yes;yes;XXXL;;"Friday 03 May 2024
Saturday 04 May 2024
Sunday 05 May 2024";" ";
1679077894928x511023638652755300;Rudy;Battistella;0675369096;no;no;Alchimie du Jeu;no;no;no;no;no;no;no;M;Francais;"Thursday 02 May 2024
Friday 03 May 2024
Saturday 04 May 2024
Sunday 05 May 2024";" ";
1679256367807x361210749990869600;Jérémy;Partinico;0786117292;no;no;Alchimie du Jeu;no;no;no;no;no;no;yes;L;Francais;;" ";
1679267683093x909496180114137800;Sam;MASSIERA;;no;no;Team Toulouse Création;no;no;no;no;yes;no;no;XL;Francais;"Friday 03 May 2024
Saturday 04 May 2024";" ";
1679306670503x454516488526818940;"Patricia ";"DALGUES ";0617224201;no;no;Cité en Jeux;no;yes;yes;yes;yes;yes;no;XS;"Francais
Anglais";"Thursday 02 May 2024
Friday 03 May 2024
Saturday 04 May 2024
Sunday 05 May 2024";" ";
1679331643753x441087486817917100;Margot;RIVIERE;0695927026;no;no;Joc ere;no;no;no;no;yes;yes;no;S;"Francais
Anglais";"Saturday 04 May 2024
Sunday 05 May 2024";" ";
1679348974931x607810774710326700;"Coralie ";Faguet;0609704428;no;no;Alchimie du Jeu;no;no;yes;yes;yes;yes;no;M;"Francais
Anglais";"Friday 03 May 2024
Saturday 04 May 2024
Sunday 05 May 2024";" ";
1679349633798x670950882304656400;Ayleen;"Ravelou ";0622665118;no;no;Alchimie du Jeu;no;no;no;yes;yes;yes;no;XL;Francais;"Friday 03 May 2024
Saturday 04 May 2024
Sunday 05 May 2024";" ";
1679390084546x617057019581673100;Bastien;BENEZET;;no;no;Alchimie du Jeu;no;no;yes;yes;yes;yes;no;L;"Francais
Anglais";"Friday 03 May 2024
Saturday 04 May 2024
Sunday 05 May 2024";" ";
1679406706782x729322583301163900;Baptiste;BURGY;0630324861;no;no;Terre de Jeu;no;no;no;yes;yes;no;no;M;Francais;"Friday 03 May 2024
Saturday 04 May 2024";" ";
1679409402448x664955931971184000;Théo;Dokhelar;;no;no;;no;no;no;no;yes;yes;no;;;"Saturday 04 May 2024
Sunday 05 May 2024";" ";
1679413447532x913989125649822100;Youenn;Fortin Muet;0768137601;no;yes;Hell's Kitchen;no;no;yes;yes;yes;yes;no;S;Francais;"Friday 03 May 2024
Saturday 04 May 2024
Sunday 05 May 2024";Eric Fortin;0768137601
1679414582351x496127300581423760;Caryl;Fortin Muet;0783416632;no;yes;Hell's Kitchen;no;no;yes;yes;yes;yes;no;L;Francais;"Friday 03 May 2024
Saturday 04 May 2024
Sunday 05 May 2024";Eric Fortin;0768137601
1679419198250x269660676928455970;Alexandre;Lagane;0613294708;no;no;Jeux de Trolls;no;yes;yes;yes;yes;yes;no;L;"Francais
Anglais";"Friday 03 May 2024
Saturday 04 May 2024
Sunday 05 May 2024
Thursday 02 May 2024";" ";
1679420372569x574215185504123800;Jehanne;Vidal;0680435433;no;no;Alchimie du Jeu;no;yes;yes;yes;no;no;no;L;Francais;"Thursday 02 May 2024
Friday 03 May 2024
Saturday 04 May 2024
Sunday 05 May 2024
Monday 06 May 2024";" ";
1679424274213x196629361723391600;Laury;Pomès;0670645632;no;no;Alchimie du Jeu;no;no;yes;yes;yes;no;yes;M;"Francais
Anglais";"Friday 03 May 2024
Saturday 04 May 2024";" ";
1679516933389x760603531458367200;Louise-Jeanne;Chillou;0679925205;no;no;Alchimie du Jeu;no;no;no;no;yes;yes;yes;M;"Francais
Anglais";"Saturday 04 May 2024
Sunday 05 May 2024";" ";
1679780072069x432180723541246900;Chrysostome;Gourio;0683025809;no;no;Alchimie du Jeu;yes;no;no;yes;yes;yes;no;M;;"Friday 03 May 2024
Saturday 04 May 2024
Sunday 05 May 2024";" ";
1679796645636x912859068254749400;Alex;Gaillard;0634180363;no;no;Cité en Jeux;no;yes;no;no;no;no;no;XXXL;"Francais
Anglais";"Thursday 02 May 2024
Monday 06 May 2024
Sunday 05 May 2024";" ";
1679810679485x821550206388512800;Kevin;Jamin;0750372135;no;no;Jeux de Trolls;no;no;no;no;yes;yes;no;XXL;"Francais
Anglais";"Saturday 04 May 2024
Sunday 05 May 2024";" ";
1679839332046x195455113080815740;Audrey;Villaron;0672059198;no;no;Alchimie du Jeu;no;yes;yes;no;no;no;no;L;Francais;"Thursday 02 May 2024
Friday 03 May 2024
Saturday 04 May 2024";" ";
1679907389777x277826317555078140;Marjorie;LEPINE;0668278054;no;no;Lauragames;yes;no;no;no;no;no;no;L;"Francais
Anglais";Thursday 02 May 2024;" ";
1679942926659x674397945204053900;Corentin;Anceaux;0611811825;no;no;Alchimie du Jeu;yes;no;yes;yes;yes;yes;no;L;"Francais
Anglais";"Friday 03 May 2024
Saturday 04 May 2024
Sunday 05 May 2024";" ";
1680063645139x823745532729283600;Alexandra;"FRAGONARD ";0673358232;no;no;Alchimie du Jeu;no;no;no;yes;yes;yes;no;XXXL;Francais;"Friday 03 May 2024
Saturday 04 May 2024
Sunday 05 May 2024";" ";
1680090160214x711625231647484400;Adeline;ESTORGES;0684086436;no;no;Joc ere;no;no;yes;no;yes;yes;no;L;Francais;"Friday 03 May 2024
Saturday 04 May 2024
Sunday 05 May 2024";" ";
1680362024556x958064375615156100;Eric;Fortin;0768137601;no;no;Hell's Kitchen;no;no;yes;yes;yes;yes;no;XXL;Francais;"Friday 03 May 2024
Saturday 04 May 2024
Sunday 05 May 2024";" ";
1680519656884x705781480582840800;Céline;Mauroux;0680044213;no;no;Croqueurs Ludiques;no;no;no;no;yes;no;no;S;"Francais
Espagnol";Saturday 04 May 2024;" ";
1680520326015x414110654203406340;Lise;Dechaume-Mauroux;0601791644;no;yes;Croqueurs Ludiques;no;no;no;no;yes;no;no;XS;Francais;Saturday 04 May 2024;Dorian Dechaume;0601791644
1680538731212x498341189878336500;Stanislas;Berthélémy;;no;no;Buena Partida Social Club;no;no;yes;yes;yes;no;no;L;"Francais
Anglais";"Thursday 02 May 2024
Friday 03 May 2024
Saturday 04 May 2024
Sunday 05 May 2024
Monday 06 May 2024";" ";
1680597519533x582237205062515300;Anne-Charlotte;Mariette;0612914769;no;no;Alchimie du Jeu;no;no;yes;yes;yes;yes;yes;L;"Francais
Anglais";"Friday 03 May 2024
Saturday 04 May 2024
Sunday 05 May 2024";" ";
1680602503707x491626645343984830;Mélanie;Roquefere;0623480188;no;no;;no;no;no;yes;yes;no;no;XXL;"Francais
Anglais";"Friday 03 May 2024
Saturday 04 May 2024
Sunday 05 May 2024";" ";
1680603284972x250696101879306360;Noémie;ROQUEFERE;0634673587;no;no;Alchimie du Jeu;no;no;no;yes;yes;no;no;XXXL;"Francais
Anglais";"Friday 03 May 2024
Saturday 04 May 2024
Sunday 05 May 2024";" ";
1680713214888x292790855271055900;Camille;Villeneuve;0680883867;no;no;Alchimie du Jeu;no;no;yes;no;yes;no;yes;L;"Francais
Anglais";"Friday 03 May 2024
Saturday 04 May 2024";" ";
1680773548537x452266963575123300;stephane;Piatkowski;0650402546;no;no;Cité en Jeux;no;no;no;no;no;no;no;L;"Francais
Anglais";Saturday 04 May 2024;" ";
1680859953214x470157326132015550;Xavier;Batiste;0603394759;no;no;;no;no;no;no;yes;yes;no;XL;"Francais
Espagnol
Anglais";"Saturday 04 May 2024
Sunday 05 May 2024";" ";
1680892250279x779764745424590600;Mélanie;Villalon;0629162261;no;no;;no;no;yes;yes;yes;yes;yes;XXL;Francais;"Friday 03 May 2024
Saturday 04 May 2024
Sunday 05 May 2024";" ";
1680979126168x152362866230535420;Madenn;Gourio-Dubreuil;;no;yes;Alchimie du Jeu;no;no;no;no;yes;no;no;S;;Saturday 04 May 2024;" ";
1680979591693x261693014423949300;Korydwenn;Gourio-Dubreuil;;no;yes;Alchimie du Jeu;no;no;no;no;yes;no;no;S;;Saturday 04 May 2024;" ";
1680984630186x149957723189796160;stephanie;calmels;;no;no;Akrojeux;no;no;yes;yes;yes;yes;no;M;"Francais
Anglais";"Friday 03 May 2024
Saturday 04 May 2024
Sunday 05 May 2024";" ";
1680988063876x988865002031294300;Jessy;Basquez;0679406400;no;no;Cité en Jeux;no;no;no;no;yes;yes;no;M;"Francais
Anglais";"Friday 03 May 2024
Saturday 04 May 2024
Sunday 05 May 2024";" ";
1681025535428x788902365873776800;Florence;Gaillard;;no;no;Cité en Jeux;no;no;no;no;yes;yes;no;M;"Francais
Anglais";"Saturday 04 May 2024
Sunday 05 May 2024
Monday 06 May 2024";" ";
1681155429312x739441542848751700;Marion;Dupouy;0647875932;no;no;Cité en Jeux;no;no;yes;no;no;yes;no;XXL;"Francais
Anglais";"Monday 06 May 2024
Sunday 05 May 2024
Friday 03 May 2024";" ";
1681238791683x139323293596224530;"Marie ";Giordana;0682030378;no;no;;no;no;no;no;no;no;yes;M;Francais;Saturday 04 May 2024;" ";
1681239228683x714220267946158200;Matthieu;Rabaglia;0647520047;no;no;;no;no;no;no;yes;yes;no;S;"Francais
Anglais";"Saturday 04 May 2024
Sunday 05 May 2024";" ";
1681287156017x177221566625924480;Lilly;Frouvelle;0607031675;no;yes;Team Toulouse Création;no;no;no;no;yes;yes;no;XS;Francais;"Saturday 04 May 2024
Sunday 05 May 2024";eric frouvelle;0607031675
1681322656849x459372170630576900;Eléana;Pace;;no;no;;no;no;no;no;no;no;yes;S;"Francais
Anglais";"Friday 03 May 2024
Saturday 04 May 2024";" ";
1681328631095x513221760911611840;Valérian;Colombier;0616856446;no;no;Comput'Yourself;no;yes;yes;yes;yes;yes;no;XL;Francais;"Thursday 02 May 2024
Friday 03 May 2024
Saturday 04 May 2024
Sunday 05 May 2024
Monday 06 May 2024";" ";
1681418573763x553203276442548700;Aurore;Belliure;0676285849;no;no;Aurora Signes;yes;no;no;yes;yes;yes;no;S;"Francais
Espagnol
Anglais";"Friday 03 May 2024
Saturday 04 May 2024
Sunday 05 May 2024";" ";
1681554570523x169251577217692580;Gwenael;BARREAU;0687109191;no;no;Des Jeux à Vous;no;no;no;yes;yes;yes;no;XL;"Francais
Anglais";"Saturday 04 May 2024
Sunday 05 May 2024
Friday 03 May 2024";" ";
1681559301537x813353574053983600;Jeanne;LAEVENS;;no;no;;no;no;no;no;no;yes;no;S;"Francais
Anglais";Sunday 05 May 2024;" ";
1681592120698x268001679161802280;Madison;Zaragoza;0782023841;no;no;Des Jeux à Vous;no;no;yes;yes;yes;yes;no;M;Francais;"Friday 03 May 2024
Saturday 04 May 2024
Sunday 05 May 2024";" ";
1681632723837x288995028954073500;Annette;Jathières;0672989954;no;no;Alchimie du Jeu;no;no;no;no;no;no;no;XL;Francais;"Saturday 04 May 2024
Sunday 05 May 2024";" ";
1681645953607x941442385782651300;Julie;Piallat;0625935558;no;yes;Joc ere;no;no;no;no;no;no;no;XS;Francais;Saturday 04 May 2024;Éric  Piallat;0625935558
1681646136241x964746042471981800;Marc;Piallat;0625935558;no;yes;Joc ere;no;no;no;no;no;no;no;XS;Francais;Saturday 04 May 2024;Éric  Piallat;0625935558
1681664943871x803956034619336600;"Maëlle ";"Barreau ";0640215683;no;no;Des Jeux à Vous;no;no;no;no;yes;yes;no;L;"Francais
Anglais";"Saturday 04 May 2024
Sunday 05 May 2024";" ";
1681729472566x592791350868281600;Francoise;FAU;0607406128;no;no;"Blue Frog Mah-Jong Club ";no;yes;no;no;no;no;no;XXXL;Francais;"Thursday 02 May 2024
Friday 03 May 2024";" ";
1681743190000x956715016819775800;Françoise;Bernis;0682328198;no;no;Bridge Capitouls Toulouse;no;no;no;no;no;yes;no;XL;Francais;"Friday 03 May 2024
Saturday 04 May 2024
Sunday 05 May 2024";" ";
1681744525527x709569520523996900;Mary-Pierre;BAIXAS;0623110537;no;no;Bridge Capitouls Toulouse;no;no;no;no;no;no;no;L;"Francais
Anglais";"Friday 03 May 2024
Saturday 04 May 2024
Sunday 05 May 2024";" ";
1681751251691x756943165903124100;Laetitia;Serris;0660168424;no;no;LOCA;no;no;yes;no;yes;yes;no;M;"Francais
Anglais";"Friday 03 May 2024
Saturday 04 May 2024
Sunday 05 May 2024";" ";
1681832617881x100551871647594380;Hélène;Charpentier;0651637020;no;no;Alchimie du Jeu;no;yes;yes;yes;no;yes;no;L;"Francais
Allemand
Anglais";"Sunday 05 May 2024
Thursday 02 May 2024
Friday 03 May 2024";" ";
1681853301655x682302734995391400;David;COLOMBO;0762891202;no;no;LOCA;no;no;no;yes;yes;yes;no;L;"Francais
Anglais";"Friday 03 May 2024
Saturday 04 May 2024
Sunday 05 May 2024";" ";
1681888880100x572983473403599900;Julie;Alvado;;no;no;;yes;no;no;no;no;no;no;M;"Francais
Anglais
Espagnol";Saturday 04 May 2024;" ";
1681992942158x121045694260643260;Arnaud;Amelot;;no;no;Team Toulouse Création;no;no;no;no;no;yes;no;L;"Francais
Anglais";Sunday 05 May 2024;" ";
1682113624426x137326581679765300;"Olivier ";Kulbicki;;no;no;Jeux de Trolls;no;no;no;no;yes;yes;no;M;Francais;"Saturday 04 May 2024
Sunday 05 May 2024";" ";
1682157409895x715279740522524800;william;CONTE;;no;yes;Lauragames;no;no;no;no;no;no;no;M;Francais;"Saturday 04 May 2024
Sunday 05 May 2024";Marie-Laure CONTE;0620091613
1682161242443x195834739826179260;Anaïs;TIECHE;0674769752;no;no;Alchimie du Jeu;no;no;yes;yes;no;yes;no;M;"Francais
Anglais";"Friday 03 May 2024
Saturday 04 May 2024
Sunday 05 May 2024";" ";
1682162905529x119379531241156750;Wendelin;BADER;;no;no;;no;no;yes;yes;yes;yes;no;XL;Francais;"Friday 03 May 2024
Saturday 04 May 2024
Sunday 05 May 2024";" ";
1682171148540x443172268621922600;Stella;Fenech;0613954871;no;no;LE RECIF / Burning Potato Head Festival;no;no;no;no;no;yes;no;S;"Francais
Espagnol
Anglais";"Saturday 04 May 2024
Sunday 05 May 2024";" ";
1682187032689x407542583869195260;Philine;Wollast;;no;no;;no;no;yes;yes;no;yes;yes;M;"Francais
Anglais";"Friday 03 May 2024
Sunday 05 May 2024";" ";
1682245635445x338510437677047360;Elias;"Allain Goursaud ";;yes;yes;Alchimie du Jeu;no;no;no;yes;no;no;no;XS;;Friday 03 May 2024;" ";
1682256903662x812347540142183800;Jimmy;Marchandet;;no;no;Jeux de Trolls;no;no;no;no;yes;no;no;M;"Francais
Anglais";Saturday 04 May 2024;" ";
1682265178468x470614995616577700;Ronan;Campredon;0649721646;no;no;Consulat d'elleslande;no;no;no;no;no;no;no;XL;"Anglais
Francais";Saturday 04 May 2024;" ";
1682267781342x576194516076267840;Délia;Fortin-Muet;;no;no;Consulat d'elleslande;no;no;yes;yes;yes;yes;yes;L;;"Friday 03 May 2024
Saturday 04 May 2024
Sunday 05 May 2024";" ";
1682277567705x672993792495205000;"Florent ";Votovic;0674356847;no;no;LE RECIF / Burning Potato Head Festival;no;no;no;yes;yes;yes;no;L;Francais;"Saturday 04 May 2024
Sunday 05 May 2024
Friday 03 May 2024";" ";
1682281523591x447834871929854140;"Thaïs ";Therond;;no;no;;no;no;no;no;no;no;no;;;Saturday 04 May 2024;" ";
1682317334174x575243016226604000;Blaise;Caperan;;no;no;;no;no;no;no;yes;yes;no;;;"Saturday 04 May 2024
Sunday 05 May 2024";" ";
1682323702496x431446038119435840;Sarita;Rozario;;no;no;;no;no;yes;no;no;no;no;M;"Francais
Anglais";Friday 03 May 2024;" ";
1682338642399x212724272402545100;Anthony;LE LUYER;0782277013;no;no;Alchimie du Jeu;no;no;yes;no;no;no;no;L;"Francais
Anglais";Friday 03 May 2024;" ";
1682359069933x372329783669148800;Marc;Vidal;0630047659;no;no;Buena Partida Social Club;no;no;yes;no;yes;no;yes;M;"Francais
Anglais";"Friday 03 May 2024
Saturday 04 May 2024
Sunday 05 May 2024";" ";
1682362887437x881255459764340700;Florent;Vanson;;no;no;;no;no;yes;yes;yes;no;no;;;"Friday 03 May 2024
Saturday 04 May 2024";" ";
1708272800853x225903271659083870;HUGO;dujols;0642515212;yes;no;Alchimie du Jeu;no;no;no;yes;yes;yes;no;XXXL;Francais;"Friday 03 May 2024
Saturday 04 May 2024
Sunday 05 May 2024";" ";
1708952885401x664059947254745200;Yann;MAURISSAT;0689179602;yes;no;Alchimie du Jeu;no;yes;yes;yes;yes;yes;no;XL;"Francais
Anglais";"Thursday 02 May 2024
Friday 03 May 2024
Saturday 04 May 2024
Sunday 05 May 2024";" ";
1709034377803x584111441774268900;"Alexandre ";"GUILLEMAUD ";0660908501;yes;no;Alchimie du Jeu;no;no;no;no;no;no;no;XXL;;"Saturday 04 May 2024
Sunday 05 May 2024";" ";
1709644130531x482060313512038000;Doriane;Beliout;0781589681;yes;no;Alchimie du Jeu;no;no;yes;yes;yes;no;no;XL;Francais;"Friday 03 May 2024
Saturday 04 May 2024";" ";
1709725069439x416582255550231400;Sophie;Narbonne;0647944778;yes;no;;no;yes;yes;no;no;no;no;M;"Francais
Anglais";"Thursday 02 May 2024
Friday 03 May 2024";" ";
1710407083708x840661124456542300;Renaud;Picard;0680611601;yes;no;Alchimie du Jeu;no;no;yes;yes;yes;no;no;XXL;"Francais
Anglais";"Friday 03 May 2024
Saturday 04 May 2024
Thursday 02 May 2024";" ";
1710445905371x447679558869339200;Paul;Legrand;0675964715;yes;no;Alchimie du Jeu;no;no;yes;yes;no;no;no;XL;"Francais
Anglais
Espagnol";Friday 03 May 2024;" ";
1710590399103x646936092315366100;Clément;Olive;0611096987;yes;no;Alchimie du Jeu;no;yes;no;no;no;no;yes;L;"Francais
Anglais";"Thursday 02 May 2024
Monday 06 May 2024";" ";
1710836681730x828873239677466800;Julien;MANRIQUE;0782329294;yes;no;La Voie du Thalos;no;no;yes;yes;yes;no;no;M;Francais;"Friday 03 May 2024
Saturday 04 May 2024";" ";
1710916625722x365208889736382340;Javier;Cuadrado;0766663353;yes;no;;no;no;no;yes;yes;yes;no;S;"Francais
Espagnol
Anglais";"Saturday 04 May 2024
Sunday 05 May 2024
Friday 03 May 2024";" ";
1710924865940x281210521752981000;Raphaël;Langella;0651330438;yes;no;Null Signal Games;no;no;yes;yes;yes;yes;no;L;"Francais
Anglais";"Friday 03 May 2024
Saturday 04 May 2024
Sunday 05 May 2024";" ";
1710926158802x177199284299199840;Servane;Keriguy;0677256447;yes;no;Alchimie du Jeu;no;no;no;no;no;no;no;M;"Francais
Anglais";"Saturday 04 May 2024
Sunday 05 May 2024
Friday 03 May 2024";" ";
1710926740711x766258523435111200;Julien;Delamarche;;yes;no;;no;no;no;no;no;no;no;;;Friday 03 May 2024;" ";
1710927714406x704196395207107100;QUENTIN;MESTRE;;yes;no;;no;no;no;no;no;no;no;;;Friday 03 May 2024;" ";
1710936122673x879901569171801100;Jess;Izrine;;yes;no;;no;no;no;yes;yes;yes;no;;;"Friday 03 May 2024
Saturday 04 May 2024
Sunday 05 May 2024";" ";
1710943703669x527307555384066500;"Jérémy ";Fournier;;yes;no;Akrojeux;no;no;no;no;yes;yes;no;S;"Francais
Anglais";"Saturday 04 May 2024
Sunday 05 May 2024";" ";
1710945108007x430937857201769500;Lilia;Benchoukroun;;yes;yes;;no;no;no;no;yes;yes;no;;;"Saturday 04 May 2024
Sunday 05 May 2024";" ";
1710963265307x679117800592864900;Emmanuelle;Augeau;0633896503;yes;no;Alchimie du Jeu;no;yes;yes;yes;yes;yes;no;L;Francais;"Friday 03 May 2024
Saturday 04 May 2024
Sunday 05 May 2024
Thursday 02 May 2024
Monday 06 May 2024";" ";
1711004015740x298476616805237950;Arthur;Van Butsele;;yes;no;;no;no;no;no;yes;yes;no;;;"Saturday 04 May 2024
Sunday 05 May 2024";" ";
1711005574845x311899597037849100;Ambre;Liabat;0752674825;yes;no;;no;yes;yes;yes;yes;no;yes;M;"Francais
Espagnol
Anglais";"Thursday 02 May 2024
Friday 03 May 2024
Saturday 04 May 2024";" ";
1711033223031x275548234190148960;"Alexandra ";"Faudé ";;yes;no;Cité en Jeux;no;no;no;no;no;yes;no;M;Francais;Sunday 05 May 2024;" ";
1711044266325x586392085980027400;Kevin;Pina;0673809569;yes;no;Des Jeux à Vous;no;yes;yes;no;no;no;no;XL;"Francais
Anglais";"Thursday 02 May 2024
Friday 03 May 2024
Sunday 05 May 2024";" ";
1711045650755x235311231206291500;Delphine;Van Butsele;;yes;no;;no;no;no;no;yes;yes;no;;;"Saturday 04 May 2024
Sunday 05 May 2024";" ";
1711048759798x121290757167298530;Florian;Poli;;yes;no;;no;no;yes;yes;yes;no;no;;;"Thursday 02 May 2024
Friday 03 May 2024
Saturday 04 May 2024";" ";
1711051197122x330695805306066400;Ulrich;MANICON;0603998845;yes;no;;no;no;no;yes;yes;no;no;XXL;"Francais
Anglais";"Friday 03 May 2024
Saturday 04 May 2024
Sunday 05 May 2024";" ";
1711051249643x178620881745984900;Noemie;Joly;0671928008;yes;no;;no;no;no;no;yes;yes;no;XXL;Francais;"Saturday 04 May 2024
Sunday 05 May 2024";" ";
1711051267492x542371758998836600;Rémy;Lapeyrade;+33625275147;yes;no;Alchimie du Jeu;no;no;yes;yes;no;yes;no;M;"Francais
Anglais";"Friday 03 May 2024
Monday 06 May 2024
Sunday 05 May 2024";" ";
1711051867933x714875822495026200;Yoyo;;;yes;no;Alchimie du Jeu;no;no;no;yes;no;no;no;XL;"Francais
Anglais";Friday 03 May 2024;" ";
1711096126173x907217446883336300;Thomas;Bringuier;0781325381;yes;no;Lauragames;no;yes;yes;no;no;no;no;L;Francais;"Friday 03 May 2024
Thursday 02 May 2024
Sunday 05 May 2024";" ";
1711096711822x736175470304276000;Steve;Vandenberghe;+32479507478;yes;no;Lauragames;no;no;no;no;yes;no;no;XL;"Francais
Anglais";Saturday 04 May 2024;" ";
1711099079269x746098385923442400;Alexandra;Abulaeva;0636196962;yes;no;Alchimie du Jeu;no;no;yes;no;no;no;no;M;"Francais
Anglais";Friday 03 May 2024;" ";
1711100341681x187268837573325570;Florent;Massiera;0674927798;yes;no;Team Toulouse Création;no;no;no;no;no;no;no;XL;Francais;Friday 03 May 2024;" ";
1711128985083x640579937806863100;Bastien;Joly;;yes;yes;;no;no;no;no;yes;yes;no;;;"Saturday 04 May 2024
Sunday 05 May 2024";" ";
1711130425394x546157016185542460;Jonathan;Lajus;0678479440;yes;no;Joc ere;no;yes;no;no;no;no;no;L;"Francais
Anglais";"Thursday 02 May 2024
Saturday 04 May 2024
Monday 06 May 2024
Friday 03 May 2024";" ";
1711131102308x752492071211508000;"Grégory ";Joly;0650926636;yes;no;;no;no;no;no;yes;yes;no;XL;"Francais
Anglais";"Saturday 04 May 2024
Sunday 05 May 2024";" ";
1711131983837x526842013826184450;Irshad;Daoud;0642002843;yes;no;;no;no;yes;yes;yes;no;no;S;"Francais
Anglais";"Friday 03 May 2024
Saturday 04 May 2024";" ";
1711181559688x224656237827555170;BRUNO;FRICOUT;0686406655;yes;no;La Voie du Thalos;no;no;no;no;no;yes;no;L;Francais;Sunday 05 May 2024;" ";
1711188187852x912619328463207400;"Xavier ";Double;;yes;no;Team Toulouse Création;no;no;no;no;no;no;no;L;"Francais
Allemand
Anglais";"Saturday 04 May 2024
Sunday 05 May 2024
Friday 03 May 2024";" ";
1711198884189x961454295806156500;Shérilyne;Mouton-Benoit;0629759468;yes;no;Alchimie du Jeu;yes;no;yes;yes;yes;no;no;XXL;"Francais
Anglais";"Friday 03 May 2024
Saturday 04 May 2024
Sunday 05 May 2024";" ";
1711201113866x705443569631350100;Benjamin;LEBRETON;0767036087;yes;no;;yes;no;yes;yes;yes;yes;yes;L;Francais;"Friday 03 May 2024
Saturday 04 May 2024
Sunday 05 May 2024";" ";
1711217179412x715320434076625300;Marie Pierre;Coussieu;0602144739;yes;no;LOCA;no;no;no;yes;no;yes;no;M;"Francais
Espagnol";"Friday 03 May 2024
Sunday 05 May 2024
Saturday 04 May 2024
Thursday 02 May 2024";" ";
1711218521044x928107022635673600;Alexis;Marceau;;yes;no;Terre de Jeu;no;no;no;no;no;no;no;M;"Francais
Anglais";Saturday 04 May 2024;" ";
1711228696991x194705147638014620;"Laetitia ";PILOD;;yes;no;;no;no;no;no;yes;no;no;M;Francais;"Thursday 02 May 2024
Saturday 04 May 2024";" ";
1711276060132x395594962906486340;Caroline;Bousquet;0677146211;yes;no;Alchimie du Jeu;no;no;no;no;no;yes;yes;XL;Francais;Sunday 05 May 2024;" ";
1711280915118x957241896437606000;"Jessica ";BUGEL;0627742137;yes;no;Lauragames;no;no;no;no;yes;yes;no;L;Francais;"Saturday 04 May 2024
Sunday 05 May 2024";" ";
1711281208753x984654133811919700;Liana;Meyzen;;yes;no;Les Ailes de Nemesis;no;no;no;yes;yes;yes;yes;XS;Francais;"Friday 03 May 2024
Saturday 04 May 2024
Sunday 05 May 2024
Monday 06 May 2024";" ";
1711282782745x386349359376215300;franck;ferreira;0768232578;yes;no;Lauragames;no;no;yes;yes;yes;yes;no;XXL;"Francais
Anglais";"Friday 03 May 2024
Saturday 04 May 2024
Sunday 05 May 2024";" ";
1711293234082x461533618781926800;Candice;BONNEVILLE;0783745711;yes;yes;LOCA;no;no;no;no;no;no;no;S;Francais;Friday 03 May 2024;"Patricia  DALGUES ";0617224201
1711298983579x694571446839411500;Florent;Castellani;0637113575;yes;no;Lauragames;no;no;no;yes;no;no;no;S;"Francais
Anglais";Friday 03 May 2024;" ";
1711312973807x992704225646090200;Marine;CANAL;;yes;no;;no;no;no;no;yes;no;no;;;Saturday 04 May 2024;" ";
1711355515123x352204693280435000;Amandine;Machaux;0681324109;yes;no;Alchimie du Jeu;no;yes;yes;no;no;no;no;XL;Francais;"Thursday 02 May 2024
Friday 03 May 2024
Sunday 05 May 2024";" ";
1711401118876x520145945546530940;Lucas;Teira Lanos;0652415532;yes;no;Les Ailes de Nemesis;no;no;no;yes;no;yes;no;L;"Francais
Espagnol
Anglais";"Friday 03 May 2024
Saturday 04 May 2024
Sunday 05 May 2024";" ";
1711442455455x645307484986588100;Laurent;Berthier;0785349777;yes;no;Buena Partida Social Club;no;no;no;no;no;yes;no;L;Francais;Sunday 05 May 2024;" ";
1711445990073x605002677337269700;BRIGITTE;MARTY;0624344208;yes;no;Alchimie du Jeu;no;no;yes;yes;yes;no;no;;Francais;"Friday 03 May 2024
Saturday 04 May 2024
Sunday 05 May 2024
Monday 06 May 2024";" ";
1711482487076x673432786678384900;Muriel;Boutes;0670359854;yes;no;Cité en Jeux;no;no;no;yes;yes;yes;no;M;Francais;"Friday 03 May 2024
Saturday 04 May 2024
Sunday 05 May 2024";" ";
1711484188223x302493895250170800;Denis;Dequidt;0659282431;yes;no;Alchimie du Jeu;no;no;no;yes;yes;no;no;L;"Francais
Anglais";"Friday 03 May 2024
Saturday 04 May 2024
Sunday 05 May 2024";" ";
1711484958900x882278230210422000;Anne-Sophie;De Clercq;+32495900027;yes;no;Alchimie du Jeu;no;no;yes;yes;no;yes;yes;M;"Francais
Anglais
Espagnol";"Sunday 05 May 2024
Friday 03 May 2024
Saturday 04 May 2024";" ";
1711493196319x893229878857761900;Robin;BLANCHARD;+33633760430;yes;no;Cité en Jeux;no;no;no;no;yes;yes;no;L;"Francais
Anglais";"Saturday 04 May 2024
Sunday 05 May 2024";" ";
1711536981979x478161946613056000;William;FELLONEAU;0617436493;yes;no;Joc ere;no;no;no;yes;yes;no;no;L;"Francais
Anglais";"Friday 03 May 2024
Saturday 04 May 2024";" ";
1711545474075x953945750507162000;Fanchon;Adloff;0631872130;yes;no;Alchimie du Jeu;yes;no;no;no;yes;yes;no;XL;Francais;"Saturday 04 May 2024
Sunday 05 May 2024";" ";
1711551802513x745804951118738800;"Léna ";Sevely;;yes;no;Alchimie du Jeu;no;no;no;yes;yes;no;yes;M;Francais;"Friday 03 May 2024
Saturday 04 May 2024";" ";
1711556429304x946240436764229600;Léa;Hoogland;0672037709;yes;no;;yes;no;no;no;yes;no;no;M;"Francais
Anglais";Saturday 04 May 2024;" ";
1711565901598x772432068762261500;Erwann;Masini;;yes;no;;no;no;no;no;yes;yes;no;;;"Saturday 04 May 2024
Sunday 05 May 2024";" ";
1711566179182x573415168869940030;Emilie;Gary;;yes;no;Terre de Jeu;no;no;no;no;no;yes;no;S;Francais;Sunday 05 May 2024;" ";
1711612128872x569491951015101760;Caroline;Traversa;0616408832;yes;no;Alchimie du Jeu;no;no;yes;no;no;no;no;S;"Francais
Anglais";Friday 03 May 2024;" ";
1711613097301x780475331338496900;Loris;Gueydan;;yes;yes;Alchimie du Jeu;no;no;yes;no;no;no;no;S;Francais;Friday 03 May 2024;Caroline Traversa;0616408832
1711613315782x559350986216297300;Louka;Gueydan;;yes;yes;Alchimie du Jeu;no;no;yes;no;no;no;no;M;"Francais
Anglais";Friday 03 May 2024;Caroline Traversa;0616408832
1711615848948x772331646142443300;Alexandre;TOUYA;0664664239;yes;no;Terre de Jeu;no;no;no;no;no;yes;yes;L;"Francais
Anglais";Sunday 05 May 2024;" ";
1711701560182x858177470666261400;Elise;Ghienne;0664974614;yes;no;Alchimie du Jeu;yes;no;no;no;no;yes;yes;XXXL;;"Saturday 04 May 2024
Sunday 05 May 2024";" ";
1711705999819x783049142957297300;Erwan;Vallienne;0601003094;yes;no;Alchimie du Jeu;no;no;no;no;no;no;no;XL;"Francais
Anglais";Thursday 02 May 2024;" ";
1711716580211x157010592423609820;Eliot;Ouvrié de monchy;0629929520;yes;yes;Alchimie du Jeu;no;no;no;no;yes;yes;no;XL;Francais;"Saturday 04 May 2024
Sunday 05 May 2024";" ";
1711717555258x794172085925526400;Mathieu;Tondut;0676574078;yes;no;;no;no;no;yes;no;no;no;;;Friday 03 May 2024;" ";
1711731321035x812294248144942400;Marius;Duboc;0676307396;yes;yes;Alchimie du Jeu;no;no;no;no;yes;yes;no;M;"Francais
Anglais";"Saturday 04 May 2024
Sunday 05 May 2024";" ";
1711733945167x873988269346090400;Sarah;BARROSO;0776586973;yes;no;"Blue Frog Mah-Jong Club ";no;yes;yes;yes;yes;yes;no;XXL;Francais;"Friday 03 May 2024
Saturday 04 May 2024
Sunday 05 May 2024
Thursday 02 May 2024
Monday 06 May 2024";" ";
1711801059615x508641073020517760;Thomas;Durand;;yes;no;;no;yes;no;no;no;no;no;L;"Francais
Anglais";"Thursday 02 May 2024
Monday 06 May 2024";" ";
1711809857121x396201846953670100;Marion;Barreau;0628486827;yes;no;Des Jeux à Vous;no;no;yes;no;yes;no;no;XXXL;Francais;"Friday 03 May 2024
Saturday 04 May 2024";" ";
1711836252670x557713637051074400;Florent;Burel;;yes;no;Akrojeux;no;no;yes;yes;no;no;no;M;Francais;Friday 03 May 2024;" ";
1711971985566x181084776595140450;"Margaux ";"Depouez-Bocchini ";;yes;no;;no;no;no;no;no;no;no;;;"Saturday 04 May 2024
Sunday 05 May 2024";" ";
1711972080448x613286827228402000;delphine;chenebault;0660520274;yes;no;;no;no;no;no;no;yes;no;M;Francais;Sunday 05 May 2024;" ";
1712069568382x909881038375115300;"Claire ";"de Monchy ";0682941419;yes;yes;Alchimie du Jeu;no;yes;yes;yes;yes;yes;no;S;Francais;"Thursday 02 May 2024
Friday 03 May 2024
Saturday 04 May 2024
Sunday 05 May 2024";" ";
1712070048423x770592019486085800;"Guillaume ";"de Monchy ";0769130224;yes;yes;Alchimie du Jeu;no;yes;yes;yes;yes;yes;no;M;Francais;"Thursday 02 May 2024
Friday 03 May 2024
Saturday 04 May 2024
Sunday 05 May 2024";" ";
1712072404532x434536236184371840;Sarah;Lardeau;;yes;no;;no;no;no;yes;yes;yes;no;;;"Friday 03 May 2024
Saturday 04 May 2024
Sunday 05 May 2024";" ";
1712095730633x971121301050912300;"Ludovic ";Lenoir;0628196250;yes;no;Alchimie du Jeu;yes;no;no;no;yes;yes;no;XL;Francais;"Saturday 04 May 2024
Sunday 05 May 2024";" ";
1712135232996x828537466307129200;"Anne-cécile ";Salles;;yes;no;;no;no;no;no;no;no;no;;;Friday 03 May 2024;" ";
1712136172471x305334938780992260;Mehdi;Zaoug;0781334081;yes;no;Cité en Jeux;no;no;no;no;yes;no;no;M;"Francais
Espagnol
Anglais";Saturday 04 May 2024;" ";
1712143858285x403550380775691260;Luke;Sims;0646081355;yes;no;Alchimie du Jeu;no;yes;yes;no;no;no;no;M;"Francais
Espagnol
Anglais";"Thursday 02 May 2024
Friday 03 May 2024
Saturday 04 May 2024
Monday 06 May 2024";" ";
1712146217662x375075090864254160;Maxime;Clergue;0619875707;yes;no;Squad Tolosà;no;no;no;no;yes;yes;no;L;"Francais
Anglais";"Saturday 04 May 2024
Sunday 05 May 2024";" ";
1712152560853x162594755872961920;Edoardo;Nasuto;;yes;no;;no;yes;yes;yes;no;no;no;;;"Thursday 02 May 2024
Friday 03 May 2024
Saturday 04 May 2024";" ";
1712154018455x390186658255289300;Clarisse;Caudmont;;yes;no;;no;no;no;no;no;yes;no;;;Sunday 05 May 2024;" ";
1712155631359x353306493463126300;"Léo ";Mullot;;yes;no;;no;no;yes;yes;no;no;yes;M;"Francais
Anglais";Friday 03 May 2024;" ";
1712169137223x739729336249421300;Hugo;GEFFROY;0641700293;yes;no;Alchimie du Jeu;no;no;yes;yes;yes;yes;no;XXXL;"Francais
Anglais";"Friday 03 May 2024
Saturday 04 May 2024
Sunday 05 May 2024";" ";
1712170358383x478469879418447000;Florent;Labarrere;+33637826932;yes;no;Les Enfants de R'Lyeh;no;no;no;yes;yes;no;no;XXL;"Francais
Anglais";"Friday 03 May 2024
Saturday 04 May 2024";" ";
1712176523579x821969189885314200;david;Tessereau;0652371432;yes;no;Cité en Jeux;no;no;yes;no;no;no;no;L;Francais;Friday 03 May 2024;" ";
1712209066469x296840878894754050;Guillaume;Vaccari;;yes;no;;no;no;yes;no;no;no;no;;;Friday 03 May 2024;" ";
1712259436644x370335308874181440;STEPHANE;LEGRAND;+33621931778;yes;no;Les Enfants de R'Lyeh;no;no;no;no;no;no;no;XXL;Francais;Friday 03 May 2024;" ";
1712317789500x695627011108359600;Saïd;"Bourhani ";0667828193;yes;no;Toulouse All In Poker;no;yes;yes;no;yes;yes;no;XXL;Francais;"Thursday 02 May 2024
Friday 03 May 2024
Sunday 05 May 2024
Monday 06 May 2024
Saturday 04 May 2024";" ";
1712350147487x987698943193800200;Renaud;BLYWEERT;0629978898;yes;no;Buena Partida Social Club;no;no;no;no;yes;no;no;XL;"Francais
Espagnol
Anglais";"Saturday 04 May 2024
Sunday 05 May 2024";" ";
1712393787880x540643334413552830;Joan;FRUTOZO;0684168078;yes;no;Jeux de Trolls;no;no;no;no;yes;yes;no;S;"Francais
Anglais";"Saturday 04 May 2024
Sunday 05 May 2024";" ";
1712408370416x939838635943184300;valentin;masson;0626285908;yes;no;Les Ailes de Nemesis;no;no;yes;yes;no;yes;no;XXL;Francais;"Sunday 05 May 2024
Saturday 04 May 2024
Friday 03 May 2024";" ";
1712411159365x617767428356412900;Philippe;Gacon;0662933228;yes;no;Lauragames;no;no;no;no;no;no;no;XXL;"Francais
Allemand
Anglais";"Friday 03 May 2024
Monday 06 May 2024";" ";
1712435775419x754782156226558600;Gérard;GARNIER;;yes;no;Les Enfants de R'Lyeh;yes;no;no;yes;yes;no;no;L;Francais;"Friday 03 May 2024
Saturday 04 May 2024";" ";
1712479647224x935960158625558100;jeremy;cieply;+33610891478;yes;no;CAT (Carrom à Toulouse);no;no;no;no;yes;yes;no;L;"Francais
Anglais";"Saturday 04 May 2024
Sunday 05 May 2024";" ";
1712483549211x536684273356629500;John;Larkin;0686831733;yes;no;"Blue Frog Mah-Jong Club ";no;no;no;no;no;no;no;L;"Francais
Anglais";Friday 03 May 2024;" ";
1712488578204x433229922020701400;Thomas;Reycoudier;;yes;no;Cité en Jeux;no;no;no;no;no;no;no;;Francais;"Friday 03 May 2024
Sunday 05 May 2024";" ";
1712499298634x855970555717413100;Loreline;Gaston;0603472570;yes;no;LE RECIF / Burning Potato Head Festival;no;no;no;no;no;no;yes;L;Francais;"Saturday 04 May 2024
Sunday 05 May 2024";" ";
1712562047603x586296789459116700;Manon;Grousset;;yes;no;LE RECIF / Burning Potato Head Festival;no;no;no;yes;no;yes;yes;M;Francais;"Friday 03 May 2024
Saturday 04 May 2024
Sunday 05 May 2024";" ";
1712568296532x145068583523228830;Yasmine;Sénéchal;0650669737;yes;no;Cité en Jeux;no;no;yes;yes;no;yes;no;M;"Francais
Anglais";"Sunday 05 May 2024
Friday 03 May 2024";" ";
1712568557481x966664733482185600;Quentin (nom d'usage Juliette);Pomparat-Gotteland;0695091992;yes;no;Cité en Jeux;no;no;yes;yes;no;yes;no;L;"Francais
Espagnol
Anglais";"Friday 03 May 2024
Sunday 05 May 2024";" ";
1712651275184x225068947168405300;Jerome;Aymes;0658730481;yes;no;Cité en Jeux;no;no;no;no;no;no;no;L;"Francais
Anglais";"Friday 03 May 2024
Saturday 04 May 2024
Sunday 05 May 2024";" ";
1712661547909x124291957306897680;Magali;Plenacoste;0619492904;yes;no;LOCA;no;no;no;no;yes;yes;no;M;Francais;"Saturday 04 May 2024
Sunday 05 May 2024";" ";
1712668258029x267970339392058500;Marine;Pourcher;0631638511;yes;no;Alchimie du Jeu;no;yes;no;yes;no;no;no;L;"Francais
Anglais";"Saturday 04 May 2024
Sunday 05 May 2024
Thursday 02 May 2024
Friday 03 May 2024";" ";
1712685895296x337953797101374200;Clément;Roger;;yes;no;;no;no;no;no;no;no;no;M;"Francais
Anglais";Sunday 05 May 2024;" ";
1712731630729x597755735635564500;Bastien;Donadieu;0626625254;yes;no;LOCA;no;no;no;no;no;no;no;L;"Francais
Anglais";Saturday 04 May 2024;" ";
1712744622019x179512812254941220;Cédric;Chambon;0611252772;yes;no;Team Toulouse Création;no;no;yes;yes;yes;yes;no;XL;"Francais
Anglais";"Friday 03 May 2024
Saturday 04 May 2024
Sunday 05 May 2024";" ";
1712748614715x665398880662662100;Ariane;Dallaporta;0781609349;yes;no;Alchimie du Jeu;no;no;yes;yes;no;no;yes;S;"Francais
Espagnol";Friday 03 May 2024;" ";
1712758143483x809099696271745700;Trung;VUONG;0642180324;yes;no;Terre de Jeu;no;no;no;no;no;yes;no;M;"Francais
Anglais";Sunday 05 May 2024;" ";
1712767296636x183944242168069470;Ariane;Mandard;;yes;no;LE RECIF / Burning Potato Head Festival;no;no;yes;yes;yes;yes;yes;M;"Francais
Italien
Anglais";"Friday 03 May 2024
Saturday 04 May 2024
Sunday 05 May 2024";" ";
1712786236087x846124059152474100;"Séverine ";"Aufrere ";;yes;yes;Les Ailes de Nemesis;no;no;no;yes;no;yes;no;S;Francais;"Friday 03 May 2024
Saturday 04 May 2024
Sunday 05 May 2024";" ";
1712786926880x423580146357793300;Christian;Bonamy;0678268429;yes;no;Null Signal Games;no;no;no;yes;no;yes;no;XXL;"Anglais
Francais";"Friday 03 May 2024
Saturday 04 May 2024
Sunday 05 May 2024";" ";
1712818525823x497708573365820200;Laure;PIALOT;0625031172;yes;no;Alchimie du Jeu;no;no;no;yes;yes;no;yes;S;"Francais
Espagnol
Italien
Anglais";"Saturday 04 May 2024
Friday 03 May 2024
Sunday 05 May 2024";" ";
1712819834459x281095953751513400;Maelle;Gutierrez Casal;;yes;no;;no;no;no;yes;yes;yes;no;;;"Friday 03 May 2024
Saturday 04 May 2024
Sunday 05 May 2024";" ";
1712822671698x638814018207279000;jasper;belcher;0602224834;yes;no;LE RECIF / Burning Potato Head Festival;no;no;yes;yes;yes;yes;yes;L;"Francais
Italien
Espagnol
Anglais";"Friday 03 May 2024
Saturday 04 May 2024
Sunday 05 May 2024";" ";
1712837404764x665366284892516800;Mathieu;Lapenna;;yes;no;Shiro Fonbo;no;yes;yes;yes;yes;yes;no;M;"Francais
Anglais";"Monday 06 May 2024
Thursday 02 May 2024
Friday 03 May 2024
Saturday 04 May 2024
Sunday 05 May 2024";" ";
1712851844241x447045937456220350;Orane;Lefebvre;;yes;no;;no;no;no;no;no;no;no;;;Friday 03 May 2024;" ";
1712918381669x972598390353802200;Monique;GARBISU;0668891036;yes;no;;no;no;yes;no;yes;yes;no;XL;Francais;"Friday 03 May 2024
Sunday 05 May 2024
Saturday 04 May 2024";" ";
1712919046291x837664505118922000;Guillaume;Ancelin;;yes;no;AST31 Tolosa;yes;no;no;yes;yes;yes;no;L;Francais;"Friday 03 May 2024
Saturday 04 May 2024
Sunday 05 May 2024";" ";
1712930157193x786756758717954300;Isabelle;Riou;0682934515;yes;no;;no;no;no;no;no;no;no;S;Francais;"Sunday 05 May 2024
Friday 03 May 2024";" ";
1712943277036x948391557675317600;Dylan;Demagny;;yes;no;Les Enfants de R'Lyeh;no;no;no;yes;yes;yes;no;L;"Francais
Anglais";"Friday 03 May 2024
Saturday 04 May 2024
Sunday 05 May 2024";" ";
1712961657195x506513521420767400;Nicolas;Saulnier;0628308456;yes;no;Alchimie du Jeu;no;no;yes;yes;no;yes;no;XL;"Francais
Anglais";"Friday 03 May 2024
Saturday 04 May 2024
Sunday 05 May 2024";" ";
1713003247824x586703191952271900;"COLOMBO ";Sacha;0663537109;yes;yes;LOCA;no;no;no;yes;yes;yes;no;S;Francais;"Friday 03 May 2024
Saturday 04 May 2024
Sunday 05 May 2024";Karen TOUFFET;0663537109
1713010243506x817197450044050800;Alexia;Brune;;yes;no;;no;no;no;no;no;no;no;;;"Thursday 02 May 2024
Friday 03 May 2024";" ";
1713013173857x129225463517131260;Sacha;Théobald;0632919408;yes;no;;no;no;no;yes;yes;yes;yes;L;"Francais
Anglais";"Friday 03 May 2024
Sunday 05 May 2024
Saturday 04 May 2024";" ";
1713013727534x606671933889652200;Edouard;Mignot;;yes;no;Bridge Capitouls Toulouse;no;no;no;yes;no;yes;yes;XL;Francais;"Saturday 04 May 2024
Friday 03 May 2024
Sunday 05 May 2024";" ";
1713013743094x411000809743037760;Celia;Boudari;0601726766;yes;no;Bridge Capitouls Toulouse;no;no;no;no;no;yes;no;L;"Francais
Anglais";Sunday 05 May 2024;" ";
1713015492709x897120657206385000;Faust;Vargas;;yes;no;;no;yes;no;no;yes;no;no;;;"Thursday 02 May 2024
Saturday 04 May 2024
Sunday 05 May 2024";" ";
1713023376353x742782741190361100;Matthieu;ALRIC;0677340469;yes;no;Alchimie du Jeu;no;yes;yes;no;no;no;yes;M;"Francais
Anglais";"Thursday 02 May 2024
Friday 03 May 2024
Sunday 05 May 2024";" ";
1713028521834x403737686427605440;Adrien;Gibralta;;yes;no;;no;yes;yes;no;no;no;no;;;"Thursday 02 May 2024
Friday 03 May 2024
Saturday 04 May 2024
Sunday 05 May 2024";" ";
1713031321676x688292193676948600;Albane;Arnold;0611406354;yes;yes;Team Toulouse Création;no;no;no;no;no;yes;no;XS;Francais;"Saturday 04 May 2024
Sunday 05 May 2024";Alexis Arnold;0611406354
1713096294802x895458180879055400;Séverine;de Monchy;;yes;no;;no;yes;yes;yes;yes;yes;no;;;"Thursday 02 May 2024
Friday 03 May 2024
Saturday 04 May 2024
Sunday 05 May 2024";" ";
1713102968387x166606994961294270;"Anthony ";Cruciani;0782277883;yes;yes;Hell's Kitchen;no;no;no;yes;yes;yes;no;M;;"Friday 03 May 2024
Saturday 04 May 2024
Sunday 05 May 2024";" ";
1713117276030x259806185673073120;Aurélie;NECTOUX;0662410204;yes;no;Accro'Jeux;no;no;no;no;yes;yes;no;XXXL;Francais;"Saturday 04 May 2024
Sunday 05 May 2024";" ";
1713118878320x690751658603569800;ALEXANDRA;NECTOUX;0779753316;yes;yes;Alchimie du Jeu;no;no;no;no;yes;yes;no;S;Francais;"Sunday 05 May 2024
Saturday 04 May 2024";Aurélie NECTOUX;0662410204
1713119356841x828946482014941700;LAURENT;NECTOUX;0678022964;yes;no;Alchimie du Jeu;no;no;no;no;yes;yes;no;XXXL;Anglais;"Saturday 04 May 2024
Sunday 05 May 2024";" ";
1713120452408x835591284072255500;rebecca;Nectoux;0678022964;yes;yes;Alchimie du Jeu;no;no;no;no;yes;yes;no;XS;Francais;"Saturday 04 May 2024
Sunday 05 May 2024";LAURENT NECTOUX;0678022964
1713123978063x197923751880899170;Agnès;Messenet;0618076213;yes;no;Alchimie du Jeu;no;no;no;no;no;no;yes;L;"Francais
Anglais";Friday 03 May 2024;" ";
1713130142787x236867081206195940;"Habibah ";"Azharhoussen ";0636194137;yes;no;Alchimie du Jeu;no;no;no;no;no;yes;no;S;"Francais
Anglais";"Saturday 04 May 2024
Sunday 05 May 2024";" ";
1713135047799x210238140634523940;Tristan;Mallier;0609604569;yes;no;Les Ailes de Nemesis;no;no;yes;yes;no;no;no;S;"Francais
Anglais";"Friday 03 May 2024
Saturday 04 May 2024";" ";
1713169423026x160793605965609900;"Amandine ";"Roux ";0672386652;yes;no;Alchimie du Jeu;yes;no;no;no;no;yes;no;M;Francais;Sunday 05 May 2024;" ";
1713188176027x202734661202300450;Izia;Dulain;;yes;yes;Croqueurs Ludiques;no;no;no;no;no;yes;no;XS;Francais;Sunday 05 May 2024;Jérémie Dulain;0643959243
1713191101249x698199076424747600;Amaïa;LIGEARD;;yes;yes;Lauragames;no;no;no;no;yes;yes;no;XS;Francais;"Saturday 04 May 2024
Sunday 05 May 2024";Frédéric LIGEARD;0649528601
1713196471331x172091848249133380;"Clémentine ";Boisdron;;yes;no;La Voie du Thalos;no;no;no;no;no;no;no;M;Francais;Saturday 04 May 2024;" ";
1713200926135x352907198114904300;Pierre;Monge;0787045060;yes;no;Terre de Jeu;no;no;no;no;no;yes;no;XL;Francais;"Saturday 04 May 2024
Sunday 05 May 2024";" ";
1713205543845x722969143821661400;Anthony;Pajot;0689206526;yes;no;Cité en Jeux;no;no;no;no;no;yes;no;M;"Francais
Anglais";Sunday 05 May 2024;" ";
1713207878280x766853849654337200;"Ludovic ";viala;0607271488;yes;no;Consulat d'elleslande;no;no;no;no;yes;yes;no;M;"Francais
Anglais";"Sunday 05 May 2024
Monday 06 May 2024
Saturday 04 May 2024";" ";
1713212568763x486116650640233500;Yves;Macia;0615616754;yes;no;Akrojeux;no;no;yes;no;no;no;no;XL;Francais;Friday 03 May 2024;" ";
1713271213249x991047294339943800;Paul;Chailloux;0641325982;yes;no;LOCA;no;no;yes;yes;yes;yes;yes;M;"Francais
Anglais";"Friday 03 May 2024
Saturday 04 May 2024
Monday 06 May 2024
Sunday 05 May 2024";" ";
1713285497833x255227749833401470;Romain;Prou;;yes;no;;no;no;yes;yes;no;yes;no;;;"Friday 03 May 2024
Saturday 04 May 2024
Sunday 05 May 2024";" ";
1713295678600x280273205832626270;Marie-Pierre;Magne;0782408537;yes;no;Alea;no;no;no;no;yes;no;no;XL;Francais;Saturday 04 May 2024;" ";
1713295692164x505306168862663000;William;Martin;0695331615;yes;no;;no;no;no;no;yes;no;no;L;"Francais
Anglais";Saturday 04 May 2024;" ";
1713296791049x375847939836918100;Nell;Mendes;0766540631;yes;yes;Alchimie du Jeu;no;no;no;no;no;no;no;M;Francais;Saturday 04 May 2024;benjamin bouteille;0637915821
1713342877059x436804436488650500;"Ibtihel ";"Belghith ";;yes;no;;no;yes;yes;yes;yes;yes;no;XS;Francais;"Thursday 02 May 2024
Friday 03 May 2024
Saturday 04 May 2024
Sunday 05 May 2024
Monday 06 May 2024";" ";
1713343789243x199151283451305180;"Thiercy ";VG;;yes;no;;no;no;no;no;no;no;no;;;Sunday 05 May 2024;" ";
1713343983849x175374397202876500;Mamoun;Gharbi;0649234223;yes;no;Akrojeux;no;no;no;no;no;yes;yes;XXL;"Francais
Anglais";Sunday 05 May 2024;" ";
1713352351130x218910339269956740;Jaevie;Dulay;0613086663;yes;no;;no;no;no;yes;no;no;no;M;"Anglais
Francais";"Thursday 02 May 2024
Friday 03 May 2024
Saturday 04 May 2024
Monday 06 May 2024";" ";
1713352867821x129936385687610350;Amaelle;Tourbier;;yes;no;LOCA;no;no;no;yes;no;no;no;S;"Francais
Anglais";Friday 03 May 2024;" ";
1713385583175x717628140867744100;Jean Christophe;BORIOS;0672101413;yes;no;Les Ailes de Nemesis;no;no;yes;yes;yes;yes;no;XXXL;Francais;"Friday 03 May 2024
Saturday 04 May 2024
Sunday 05 May 2024";" ";
1713424776407x100565556034872160;"Lucas ";Freund;0674082149;yes;yes;Alchimie du Jeu;no;no;no;no;yes;no;no;L;Francais;Saturday 04 May 2024;Theo Maraval;0768494525
1713436459539x460104857997044800;Dimitri;Langella;0767200510;yes;yes;Null Signal Games;no;no;no;no;no;yes;no;M;"Anglais
Francais";"Saturday 04 May 2024
Sunday 05 May 2024";Raphaël Langella;0651330438
1713439881092x757807112434311800;Julien;Maly;0659819865;yes;no;Bridge Capitouls Toulouse;no;no;no;no;no;yes;no;XL;Francais;"Saturday 04 May 2024
Sunday 05 May 2024";" ";
1713458321334x482753451221928900;Julien;MIQUEU;;yes;no;EnVies EnJeux;no;no;no;no;no;no;no;L;"Francais
Anglais";Saturday 04 May 2024;" ";
1713465034565x109149479401399410;Christophe;CHAZAREIN BÉA;0631804007;yes;no;Null Signal Games;no;no;yes;yes;no;yes;yes;L;"Francais
Anglais";"Friday 03 May 2024
Saturday 04 May 2024
Sunday 05 May 2024";" ";
1713514199872x455186792139527400;Canelle;Lapitre;;yes;no;EnVies EnJeux;no;no;no;no;no;no;no;M;;Saturday 04 May 2024;" ";
1713524612603x879921044564193200;Stéphane;Lautié;0672641582;yes;no;;no;no;no;no;no;yes;no;XL;Francais;"Saturday 04 May 2024
Sunday 05 May 2024";" ";
1713529510254x793076761555934000;"Jessica ";"LOISEAU ";0688831037;yes;no;Jeux de Trolls;no;no;no;no;no;no;no;XL;Francais;Friday 03 May 2024;" ";
1713534518473x818056373306198900;"Apolline ";perrin;;yes;no;;no;yes;yes;yes;no;yes;no;;;"Thursday 02 May 2024
Friday 03 May 2024
Saturday 04 May 2024
Sunday 05 May 2024
Monday 06 May 2024";" ";
1713538935146x517382444208296400;Olga;HARDY-DESSOURCES;0603461434;yes;no;Bridge Capitouls Toulouse;no;no;no;no;no;yes;no;XL;"Francais
Anglais";Sunday 05 May 2024;" ";
1713555600481x290449369485724400;"Théo ";Hennequin;0615761865;yes;no;Consulat d'elleslande;no;no;no;no;no;yes;yes;M;"Francais
Anglais";"Saturday 04 May 2024
Sunday 05 May 2024";" ";
1713601967208x968332255542888600;Clara;BORNES;0695226280;yes;no;Consulat d'elleslande;no;no;no;no;no;yes;yes;S;"Francais
Anglais";"Saturday 04 May 2024
Sunday 05 May 2024";" ";
1713602841913x174965145054499330;Vanessa;"Steinmetz Marinello ";0668001768;yes;no;Les Ailes de Nemesis;no;no;no;yes;no;no;no;L;Francais;Friday 03 May 2024;" ";
1713603056844x576078918259141950;Thomas;"Dufour ";;yes;yes;;no;no;no;no;no;no;no;;;"Saturday 04 May 2024
Sunday 05 May 2024";" ";
1713609737924x182576923196980700;Esther;Patterson;0699419613;yes;no;Alchimie du Jeu;no;no;yes;no;no;no;no;M;"Francais
Anglais";"Friday 03 May 2024
Saturday 04 May 2024";" ";
1713618517123x697942476669976400;nicolas;Testud;0614659088;yes;no;Toulouse All In Poker;no;no;no;yes;no;yes;no;XXXL;"Francais
Anglais
Espagnol";"Friday 03 May 2024
Saturday 04 May 2024
Sunday 05 May 2024";" ";
1713620355705x135236872967618110;Damien;Millard;;yes;no;;no;no;yes;no;no;no;no;;;Friday 03 May 2024;" ";
1713622117322x725649035397472000;"Thibault ";"Poimboeuf ";;yes;no;Les Ailes de Nemesis;no;no;no;yes;no;no;no;XXXL;"Francais
Anglais";Friday 03 May 2024;" ";
1713632098493x953268157720873100;Julien;Pruvost;;yes;no;;no;no;no;no;no;yes;no;;;"Saturday 04 May 2024
Sunday 05 May 2024";" ";
1713633904887x296654108865317600;"Nicolas ";Penel;;yes;no;;no;no;no;no;no;yes;no;L;"Francais
Anglais";Sunday 05 May 2024;" ";
1713644379424x922237693696919900;Anita;"Bollaert ";;yes;no;;no;no;no;no;no;yes;no;;;"Saturday 04 May 2024
Sunday 05 May 2024";" ";
1714690366857x394412707244037760;Prune;Tarride;;yes;no;Alchimie du Jeu;no;no;no;no;no;no;no;M;;Saturday 04 May 2024;" ";